Place,Sex,Name,CyrillicName,BodyweightKg,Bench1Kg,Bench2Kg,Bench3Kg,Best3BenchKg,Bench4Kg,Deadlift1Kg,Deadlift2Kg,Deadlift3Kg,Best3DeadliftKg,Deadlift4Kg,TotalKg,WeightClassKg,Event,Equipment,Tested,Division,Age,BirthDate
1,F,Valentina Gosteva,Валентина Гостева,57.25,62.5,65,-67.5,65,,110,115,-120,115,,180,60,BD,Raw,Yes,Amateur Masters 60-64,63,1955-08-07
1,F,Elena Sklyar,Елена Скляр,64.65,-50,-52.5,52.5,52.5,,-85,85,87.5,87.5,,140,67.5,BD,Raw,Yes,Amateur Masters 40-44,41,1978-02-10
1,M,Sergey Konkin,Сергей Конкин,67.45,70,-72.5,-75,70,,105,-112.5,-112.5,105,,175,67.5,BD,Raw,Yes,Amateur Teen 16-17,16,2002-10-08
1,M,Magomed Aliev,Магомед Алиев,67.2,90,-100,-100,90,,130,140,150,150,,240,67.5,BD,Raw,Yes,Amateur Open,27,1991-09-04
1,M,Grigoriy Popov,Григорий Попов,98.65,120,-127.5,130,130,,200,215,225,225,,355,100,BD,Raw,Yes,Amateur Open,38,1981-01-17
2,M,Ilya Grishin,Илья Гришин,94.6,-100,100,105,105,,160,165,170,170,,275,100,BD,Raw,Yes,Amateur Open,26,1993-03-01
1,M,Vitaliy Merkulov,Виталий Меркулов,107.3,150,-155,-155,150,,250,255,262.5,262.5,,412.5,110,BD,Raw,Yes,Amateur Open,29,1990-06-11
1,M,Aleksey Zhegulskiy,Алексей Жегульский,121,-170,175,180,180,,200,230,-260,230,,410,125,BD,Raw,Yes,Amateur Open,35,1984-01-01
1,F,Anastasiya Lutsenko,Анастасия Луценко,47.05,,,,,,85,95,-100,95,,95,48,D,Raw,Yes,Amateur Juniors 20-23,20,1998-10-27
1,F,Ekaterina Shevchenko,Екатерина Шевченко,54.95,,,,,,65,72.5,-77.5,72.5,,72.5,56,D,Raw,Yes,Amateur Open,24,1995-07-07
1,F,Polina Lyakhova,Полина Ляхова,58.2,,,,,,107.5,112.5,-120,112.5,,112.5,60,D,Raw,Yes,Amateur Open,26,1993-06-22
2,F,Tatyana Zmievskaya,Татьяна Змиевская,58.5,,,,,,95,105,112.5,112.5,,112.5,60,D,Raw,Yes,Amateur Open,28,1990-09-12
1,F,Valentina Gosteva,Валентина Гостева,57.25,,,,,,110,115,-120,115,,115,60,D,Raw,Yes,Amateur Masters 60-64,63,1955-08-07
1,F,Anastasiya Dudakova,Анастасия Дудакова,64,,,,,,85,-92.5,92.5,92.5,,92.5,67.5,D,Raw,Yes,Amateur Juniors 20-23,23,1995-12-27
1,F,Marina Elnikova,Марина Ельникова,65.4,,,,,,105,120,125,125,,125,67.5,D,Raw,Yes,Amateur Open,32,1987-04-26
2,F,Nataliya Mikhaylova,Наталия Михайлова,65.8,,,,,,105,-120,-120,105,,105,67.5,D,Raw,Yes,Amateur Open,21,1998-02-25
1,F,Elena Sklyar,Елена Скляр,64.65,,,,,,-85,85,87.5,87.5,,87.5,67.5,D,Raw,Yes,Amateur Masters 40-44,41,1978-02-10
1,F,Irina Khvashchinskaya,Ирина Хващинская,66.35,,,,,,117.5,125,130,130,,130,67.5,D,Raw,Yes,Amateur Masters 45-49,47,1971-11-13
1,F,Elena Zvyagintseva,Елена Звягинцева,68.5,,,,,,110,120,130,130,,130,75,D,Raw,Yes,Amateur Open,45,1974-05-24
2,F,Anastasiya Khokhlova,Анастасия Хохлова,74.95,,,,,,120,127.5,-132.5,127.5,,127.5,75,D,Raw,Yes,Amateur Open,27,1991-12-28
1,F,Elena Zvyagintseva,Елена Звягинцева,68.5,,,,,,110,120,130,130,,130,75,D,Raw,Yes,Amateur Masters 45-49,45,1974-05-24
1,M,Nikita Sharov,Никита Шаров,46.8,,,,,,70,75,80,80,,80,48,D,Raw,Yes,Amateur Teen 13,12,2007-04-28
1,M,Sergey Ponomarev,Сергей Пономарев,59.9,,,,,,80,-90,95,95,,95,60,D,Raw,Yes,Amateur Teen 14-15,14,2005-03-20
1,M,Andrey Maksimov,Андрей Максимов,64,,,,,,175,192.5,200,200,,200,67.5,D,Raw,Yes,Amateur Open,27,1991-10-24
1,M,Aleksey Yatskiy,Алексей Яцкий,72.45,,,,,,130,145,157.5,157.5,,157.5,75,D,Raw,Yes,Amateur Teen 18-19,18,2001-01-12
1,M,Artur Mirzoyan,Артур Мирзоян,79.65,,,,,,90,100,115,115,,115,82.5,D,Raw,Yes,Amateur Teen 14-15,14,2004-11-25
1,M,Evgeniy Gorshkov,Евгений Горшков,77.3,,,,,,260,270,-280,270,,270,82.5,D,Raw,Yes,Amateur Open,37,1981-11-13
2,M,Pavel Polyakov,Павел Поляков,79.4,,,,,,210,217.5,-220,217.5,,217.5,82.5,D,Raw,Yes,Amateur Open,26,1993-07-13
1,M,Aleksandr Yakovlev,Александр Яковлев,86.55,,,,,,157.5,172.5,-197.5,172.5,,172.5,90,D,Raw,Yes,Amateur Teen 16-17,17,2001-12-24
1,M,Vitaliy Merkulov,Виталий Меркулов,107.3,,,,,,250,255,262.5,262.5,,262.5,110,D,Raw,Yes,Amateur Open,29,1990-06-11
1,M,Valeriy Bobovich,Валерий Бобович,105.15,,,,,,160,175,185,185,,185,110,D,Raw,Yes,Amateur Masters 50-54,52,1966-08-16
1,M,Evgeniy Dushevin,Евгений Душевин,81.65,-175,175,185,185,,,,,,,185,82.5,B,Multi-ply,Yes,Amateur Juniors 20-23,23,1995-08-20
1,M,Artem Pelin,Артем Пелин,109.45,180,-185,-185,180,,,,,,,180,110,B,Raw,No,Pro Open,37,1982-01-28
1,M,Mikhail Polovkov,Михаил Половков,111,175,187.5,192.5,192.5,,,,,,,192.5,125,B,Raw,No,Pro Open,41,1977-10-09
1,M,Mikhail Polovkov,Михаил Половков,111,175,187.5,192.5,192.5,,,,,,,192.5,125,B,Raw,No,Pro Masters 40-44,41,1977-10-09
1,M,Marina Rudneva,Марина Руднева,51.6,40,45,-47.5,45,,,,,,,45,52,B,Raw,Yes,Amateur Open,28,1990-07-26
1,M,Ilona Besedina,Илона Беседина,56,50,-52.5,-52.5,50,,,,,,,50,56,B,Raw,Yes,Amateur Open,32,1986-09-18
1,M,Valentina Gosteva,Валентина Гостева,57.25,62.5,65,-67.5,65,,,,,,,65,60,B,Raw,Yes,Amateur Masters 60-64,63,1955-08-07
1,M,Anastasiya Dudakova,Анастасия Дудакова,64,-50,52.5,-55,52.5,,,,,,,52.5,67.5,B,Raw,Yes,Amateur Juniors 20-23,23,1995-12-27
1,M,Elena Sklyar,Елена Скляр,64.65,-50,-52.5,52.5,52.5,,,,,,,52.5,67.5,B,Raw,Yes,Amateur Masters 40-44,41,1978-02-10
1,M,Nikita Sharov,Никита Шаров,46.8,27.5,32.5,37.5,37.5,,,,,,,37.5,48,B,Raw,Yes,Amateur Teen 13,12,2007-04-28
1,M,Evgeniy Ovchinnikov,Евгений Овчинников,73.5,110,-120,-120,110,,,,,,,110,75,B,Raw,Yes,Amateur Open,24,1994-08-11
1,M,Vadim Ryumshin,Вадим Рюмшин,89.1,155,-160,,155,,,,,,,155,90,B,Raw,Yes,Amateur Juniors 20-23,22,1997-04-03
1,M,Igor Obukhov,Игорь Обухов,87.75,160,-165,-165,160,,,,,,,160,90,B,Raw,Yes,Amateur Open,28,1990-11-07
2,M,Evgeniy Lashkevich,Евгений Лашкевич,86.7,150,-155,-155,150,,,,,,,150,90,B,Raw,Yes,Amateur Open,31,1988-06-22
1,M,Anton Prilepskiy,Антон Прилепский,97.3,152.5,-162.5,-162.5,152.5,,,,,,,152.5,100,B,Raw,Yes,Amateur Juniors 20-23,21,1998-05-28
1,M,Aleksandr Shevchenko,Александр Шевченко,93.9,135,140,,140,,,,,,,140,100,B,Raw,Yes,Amateur Open,30,1989-01-30
1,M,Vitaliy Merkulov,Виталий Меркулов,107.3,150,-155,-155,150,,,,,,,150,110,B,Raw,Yes,Amateur Open,29,1990-06-11
1,M,Aleksandr Dorofeev,Александр Дорофеев,116.15,180,185,190,190,,,,,,,190,125,B,Raw,Yes,Amateur Open,29,1990-02-26
2,M,Aleksey Zhegulskiy,Алексей Жегульский,121,-170,175,180,180,,,,,,,180,125,B,Raw,Yes,Amateur Open,35,1984-01-01
3,M,Maksim Mikheev,Максим Михеев,116.3,140,147.5,-155,147.5,,,,,,,147.5,125,B,Raw,Yes,Amateur Open,31,1987-08-13
1,M,Dmitriy Lyubivyy,Дмитрий Любивый,58.75,70,-75,-75,70,,,,,,,70,60,B,Raw,No,Pro Masters 40-44,43,1976-02-01
1,M,Igor Akatov,Игорь Акатов,86.85,100,107.5,110,110,,,,,,,110,90,B,Raw,No,Pro Masters 55-59,58,1960-11-02
1,M,Dmitriy Chebanov,Дмитрий Чебанов,80.85,135,-140,140,140,,,,,,,140,82.5,B,Multi-ply,Yes,Amateur Open,20,1998-11-13
1,M,Mikhail Karpachev,Михаил Карпачев,99.6,175,182.5,-187.5,182.5,,,,,,,182.5,100,B,Multi-ply,Yes,Amateur Open,59,1959-11-11
1,M,Ruslan Kalakutskiy,Руслан Калакуцкий,97.45,-250,250,260,260,,,,,,,260,100,B,Multi-ply,Yes,Amateur Masters 40-44,40,1979-04-22
1,M,Sergey Vinokhodov,Сергей Виноходов,127,250,-260,265,265,,,,,,,265,140,B,Multi-ply,Yes,Amateur Open,36,1982-09-17
