Place,Name,CyrillicName,WeightClassKg,Sex,Division,BirthYear,BodyweightKg,Squat1Kg,Squat2Kg,Squat3Kg,Best3SquatKg,Bench1Kg,Bench2Kg,Bench3Kg,Best3BenchKg,Deadlift1Kg,Deadlift2Kg,Deadlift3Kg,Best3DeadliftKg,TotalKg,Event,Equipment,Tested
1,Gayan Akhmetzyanov,Гаян Ахметзянов,125,M,Pro Masters 40-49,1972,113.8,270,285,-295,285,190,-200,,190,260,270,,270,745,SBD,Wraps,No
2,Aleksandr Grishchenko,Александр Грищенко,100,M,Pro Masters 40-49,1968,96.6,180,190,200,200,100,107.5,,107.5,190,200,205,205,512.5,SBD,Wraps,No
3,Igor Pyzhyanov,Игорь Пыжьянов,100,M,Pro Masters 40-49,1972,99.25,175,185,190,190,110,115,,115,195,205,210,210,515,SBD,Wraps,No
1,Artur Fantalis,Артур Фанталис,75,M,Pro Masters 50-59,1962,73,125,130,-135,130,-100,100,,100,155,165,172.5,172.5,402.5,SBD,Wraps,No
1,Aleksandr Rabinovich,Александр Рабинович,82.5,M,Pro Masters 40-49,1967,80.85,,,,,167.5,175,180,180,,,,,180,B,Raw,No
2,Vitaliy Mikhaylovskiy,Виталий Михайловский,82.5,M,Pro Masters 40-49,1967,81.6,,,,,125,-132.5,,125,,,,,125,B,Raw,No
1,Dmitriy Yanevich,Дмитрий Яневич,90,M,Pro Masters 40-49,1974,86.1,,,,,185,-192.5,,185,,,,,185,B,Raw,No
2,Aleksandr Slyunkov,Александр Слюньков,100,M,Pro Masters 40-49,1974,98,,,,,-165,170,177.5,177.5,,,,,177.5,B,Raw,No
3,Dmitriy Kochukhov,Дмитрий Кочухов,90,M,Pro Masters 40-49,1971,88.5,,,,,165,-180,,165,,,,,165,B,Raw,No
4,Valentin Petrovskiy,Валентин Петровский,100,M,Pro Masters 40-49,1967,97.5,,,,,150,-155,,150,,,,,150,B,Raw,No
DQ,Viktor Kotov,Виктор Котов,100,M,Pro Masters 40-49,1974,98.3,,,,,-180,-185,-185,,,,,,,B,Raw,No
DQ,Ruslan Alimov,Руслан Алімов,100,M,Pro Masters 40-49,1975,99.5,,,,,-150,-155,-155,,,,,,,B,Raw,No
1,Eduard Dmitriev,Эдуард Дмитриев,110,M,Pro Masters 40-49,1972,110,,,,,210,217.5,,217.5,,,,,217.5,B,Raw,No
2,Valeriy Benko,Валерий Бенько,110,M,Pro Masters 40-49,1974,108.6,,,,,152.5,-162.5,,152.5,,,,,152.5,B,Raw,No
1,Gayan Akhmetzyanov,Гаян Ахметзянов,125,M,Pro Masters 40-49,1972,113.8,,,,,190,-200,,190,,,,,190,B,Raw,No
1,Aleksandr Makey,Александр Макей,110,M,Pro Masters 50-59,1964,105.9,,,,,200,-205,,200,,,,,200,B,Raw,No
2,Aleksey Pchelintsev,Алексей Пчелинцев,110,M,Pro Masters 50-59,1959,107.4,,,,,162.5,172.5,,172.5,,,,,172.5,B,Raw,No
3,Vasiliy Ivanchenko,Василий Иванченко,100,M,Pro Masters 50-59,1957,93.7,,,,,-145,-145,145,145,,,,,145,B,Raw,No
DQ,Aleksandr Olshevskiy,Александр Ольшевский,67.5,M,Pro Masters 50-59,1962,65,,,,,-110,-112.5,-112.5,,,,,,,B,Raw,No
1,Aleksandr Siluyanov,Александр Силуянов,100,M,Pro Masters 60-69,1954,92.6,,,,,137.5,142.5,,142.5,,,,,142.5,B,Raw,No
2,Sergey Shirkevich,Сергей Ширкевич,100,M,Pro Masters 60-69,1952,91.4,,,,,-130,135,,135,,,,,135,B,Raw,No
1,Dmitriy Yanevich,Дмитрий Яневич,90,M,Pro Masters 40-49,1974,86.1,,,,,,,,,200,210,217.5,217.5,217.5,D,Raw,No
2,Igor Pyzhyanov,Игорь Пыжьянов,100,M,Pro Masters 40-49,1972,99.25,,,,,,,,,195,205,210,210,210,D,Raw,No
1,Sergey Poletaev,Сергей Полетаев,82.5,M,Pro Masters 50-59,1966,80.5,,,,,,,,,160,-170,-170,160,160,D,Raw,No
1,Kseniya Boytsova,Ксения Бойцова,48,F,Pro Open,1989,46.1,-75,75,-80,75,40,42.5,-45,42.5,90,95,100,100,217.5,SBD,Wraps,No
2,Tatyana Bachurnaya,Татьяна Бачурная,52,F,Pro Open,1982,51.6,80,85,-90,85,35,37.5,40,40,100,105,110,110,235,SBD,Wraps,No
3,Olesya Korshun,Олеся Коршун,52,F,Pro Open,1991,51.6,70,75,80,80,37.5,40,-42.5,40,100,107.5,110,110,230,SBD,Wraps,No
4,Yuliya Andreykovets,Юлия Андрейковец,48,F,Pro Open,1988,47.4,70,-80,-80,70,37.5,40,-42.5,40,-90,95,-100,95,205,SBD,Wraps,No
1,Olga Poznyak,Ольга Позняк,56,F,Pro Open,1987,54.42,85,90,-95,90,40,-45,45,45,105,110,115,115,250,SBD,Wraps,No
2,Inessa Borshchevskaya,Инесса Борщевская,56,F,Pro Open,1982,55,70,75,80,80,35,40,-42.5,40,80,90,100,100,220,SBD,Wraps,No
1,Viktoriya Mishina,Виктория Мишина,67.5,F,Pro Open,1990,64.6,160,-165,-165,160,55,62.5,-65,62.5,150,160,165,165,387.5,SBD,Wraps,No
2,Anna Klimovich,Анна Климович,67.5,F,Pro Open,1983,66.3,140,-152.5,-155,140,80,-87.5,-87.5,80,135,142.5,150,150,370,SBD,Wraps,No
3,Sofya Shubtsova,Софья Шубцова,60,F,Pro Open,1965,57.9,110,120,-125,120,-77.5,77.5,-80,77.5,110,120,130,130,327.5,SBD,Wraps,No
4,Yuliya Urban,Юлия Урбан,75,F,Pro Open,1986,75,-120,120,130,130,-70,-70,70,70,120,130,140,140,340,SBD,Wraps,No
5,Natalya Turovets,Наталья Туровец,67.5,F,Pro Open,1979,66.7,95,-100,-102.5,95,50,-52.5,-52.5,50,110,117.5,125,125,270,SBD,Wraps,No
6,Irina Filatova,Ирина Филатова,60,F,Pro Open,1979,57.4,85,-90,-90,85,45,-50,-50,45,80,-85,-85,80,210,SBD,Wraps,No
DQ,Kristina Vyal,Кристина Вьяль,60,F,Pro Open,1991,59.1,105,-115,-115,105,-52.5,-52.5,-52.5,,,,,,,SBD,Wraps,No
1,Tatyana Gorbach,Татьяна Горбач,48,F,Pro Open,1979,47.1,,,,,45,47.5,50,50,,,,,50,B,Raw,No
2,Natalya Batargina,Наталья Батаргина,48,F,Pro Open,1982,47.8,,,,,-42.5,45,-47.5,45,,,,,45,B,Raw,No
DD,Irina Chaykovskaya,Ирина Чайковская,56,F,Pro Open,1985,55.76,,,,,-67.5,-67.5,-67.5,,,,,,,B,Raw,No
1,Alla Lomako,Алла Ломако,60,F,Pro Open,1980,58.6,,,,,92.5,97.5,-101,97.5,,,,,97.5,B,Raw,No
2,Vera Bogdanovich,Вера Богданович,75,F,Pro Open,1982,74.9,,,,,95,100,-105,100,,,,,100,B,Raw,No
3,Yuliya Prachkovskaya,Юлия Прачковская,67.5,F,Pro Open,1988,64.3,,,,,87.5,-90,-90,87.5,,,,,87.5,B,Raw,No
4,Sofya Shubtsova,Софья Шубцова,60,F,Pro Open,1965,57.9,,,,,-77.5,77.5,-80,77.5,,,,,77.5,B,Raw,No
1,Anna Klimovich,Анна Климович,67.5,F,Pro Open,1983,66.3,,,,,,,,,135,142.5,150,150,150,D,Raw,No
2,Olesya Korshun,Олеся Коршун,52,F,Pro Open,1991,51.6,,,,,,,,,100,107.5,110,110,110,D,Raw,No
3,Yuliya Andreykovets,Юлия Андрейковец,48,F,Pro Open,1988,47.4,,,,,,,,,-90,95,-100,95,95,D,Raw,No
1,Anastasiya Tkhorik,Анастасия Тхорик,48,F,Pro Open,1999,46.6,80,87.5,-95,87.5,35,40,-42.5,40,77.5,85,90,90,217.5,SBD,Wraps,No
2,Ekaterina Grinkevich,Екатерина Гринкевич,48,F,Pro Open,1998,46.2,65,70,-75,70,40,42.5,-45,42.5,80,87.5,-92.5,87.5,200,SBD,Wraps,No
1,Evgeniya Desyatnikova,Евгения Десятникова,67.5,F,Pro Open,1998,65.9,110,120,130,130,70,-80,-80,70,140,-150,-150,140,340,SBD,Wraps,No
2,Anastasiya Arseniy,Анастасия Арсений,60,F,Pro Open,1997,59.5,85,90,-95,90,35,40,42.5,42.5,100,110,112.5,112.5,245,SBD,Wraps,No
1,Evgeniya Desyatnikova,Евгения Десятникова,67.5,F,Pro Open,1998,65.9,,,,,70,-80,-80,70,,,,,70,B,Raw,No
2,Anastasiya Daniel,Анастасия Даниэль,67.5,F,Pro Open,1999,65,,,,,60,-65,-65,60,,,,,60,B,Raw,No
1,Irena Todrik,Ирена Тодрик,52,F,Pro Open,1996,49.3,-75,-75,80,80,35,37.5,-40,37.5,75,77.5,80,80,197.5,SBD,Wraps,No
DQ,Anastasiya Puchok,Анастасия Пучок,52,F,Pro Open,1992,52,-75,-75,-80,,45,-50,-50,45,,,,,,SBD,Wraps,No
1,Evgeniya Desyatnikova,Евгения Десятникова,67.5,F,Pro Open,1998,65.9,,,,,,,,,140,-150,-150,140,140,D,Raw,No
1,Vladislav Radukhovskiy,Владислав Радуховский,56,M,Pro Sub-Juniors 17-19,1998,55.2,105,112.5,-120,112.5,85,-87.5,-87.5,85,125,130,135,135,332.5,SBD,Wraps,No
1,Stanislav Sanotskiy,Станислав Саноцкий,67.5,M,Pro Juniors 20-23,1996,65.1,190,-200,-200,190,90,102.5,-105,102.5,190,202.5,212.5,212.5,505,SBD,Wraps,No
2,Nikita Grekov,Никита Греков,75,M,Pro Sub-Juniors 17-19,1997,71.4,150,155,160,160,80,90,-100,90,180,190,200,200,450,SBD,Wraps,No
DQ,Denis Golovach,Денис Головач,67.5,M,Pro Teen 14-16,1999,67.4,-180,-180,-180,,,,,,,,,,,SBD,Wraps,No
1,Silov Erik,Силов Эрик,82.5,M,Pro Sub-Juniors 17-19,1997,82.2,240,260,,260,120,-130,-130,120,220,240,255,255,635,SBD,Wraps,No
2,Ilya Razmyslov,Илья Размыслов,82.5,M,Pro Sub-Juniors 17-19,1998,82.5,-160,165,175,175,105,-110,,105,170,180,190,190,470,SBD,Wraps,No
DQ,Oleg Kanafev,Олег Канафьев,82.5,M,Pro Juniors 20-23,1996,81.2,-210,-215,-215,,,,,,,,,,,SBD,Wraps,No
DQ,Egor Golubev,Егор Голубев,82.5,M,Pro Sub-Juniors 17-19,1997,81.6,-220,-220,-220,,,,,,,,,,,SBD,Wraps,No
1,Kalva Aris,Кальва Арис,125,M,Pro Sub-Juniors 17-19,1998,125,200,210,220,220,140,147.5,-150,147.5,260,280,300,300,667.5,SBD,Wraps,No
DQ,Aleksey Mitskevich,Алексей Мицкевич,100,M,Pro Sub-Juniors 17-19,1997,92.3,-180,180,-187.5,180,-120,-120,-120,,,,,,,SBD,Wraps,No
1,Maksim Potorskiy,Максим Поторский,56,M,Pro Juniors 20-23,1996,55,,,,,-110,110,-117.5,110,,,,,110,B,Raw,No
2,Ilya Mitskevich,Илья Мицкевич,75,M,Pro Sub-Juniors 17-19,1997,73.9,,,,,120,,,120,,,,,120,B,Raw,No
3,Kirill Rudkovskiy,Кирилл Рудковский,75,M,Pro Sub-Juniors 17-19,1998,74.3,,,,,120,-125,-125,120,,,,,120,B,Raw,No
4,Dmitrievich Starnakov Vasiliy,Дмитриевич Старнаков Василий,67.5,M,Pro Sub-Juniors 17-19,1998,63.8,,,,,100,-102.5,-102.5,100,,,,,100,B,Raw,No
5,Stanislav Popkov,Станислав Попков,60,M,Pro Teen 14-16,2000,58.9,,,,,92.5,-100,-100,92.5,,,,,92.5,B,Raw,No
DQ,Vasiliy Safronov,Василий Сафронов,67.5,M,Pro Teen 14-16,1999,63.8,,,,,-100,,,,,,,,,B,Raw,No
1,Vladislav Shust,Владислав Шуст,100,M,Pro Sub-Juniors 17-19,1998,96.6,,,,,140,150,-155,150,,,,,150,B,Raw,No
2,Aleksandr Okunev,Александр Окунев,82.5,M,Pro Teen 14-16,1999,77.8,,,,,127.5,-132.5,-132.5,127.5,,,,,127.5,B,Raw,No
3,Vladimir Pytlyak,Владимир Пытляк,82.5,M,Pro Sub-Juniors 17-19,1998,77.3,,,,,110,-112.5,-112.5,110,,,,,110,B,Raw,No
4,Vladislav Dudarenko,Владислав Дударенко,82.5,M,Pro Teen 14-16,1999,81.4,,,,,110,-115,-115,110,,,,,110,B,Raw,No
DQ,Vladislav Volk,Владислав Волк,82.5,M,Pro Teen 14-16,1999,79.6,,,,,-112.5,-117.5,-117.5,,,,,,,B,Raw,No
DQ,Aleksandr Zabavskiy,Александр Забавский,82.5,M,Pro Sub-Juniors 17-19,1997,79.7,,,,,-125,-125,-125,,,,,,,B,Raw,No
DQ,Mikhail Ashla,Михаил Ашла,110,M,Pro Teen 14-16,1999,105.8,,,,,-150,-150,-150,,,,,,,B,Raw,No
1,Silov Erik,Силов Эрик,82.5,M,Pro Sub-Juniors 17-19,1997,82.2,,,,,,,,,220,240,255,255,255,D,Raw,No
2,Kalva Aris,Кальва Арис,125,M,Pro Sub-Juniors 17-19,1998,125,,,,,,,,,260,280,300,300,300,D,Raw,No
3,Anton Sevzyuk,Антон Севзюк,75,M,Pro Sub-Juniors 17-19,1998,70.1,,,,,,,,,190,200,-205,200,200,D,Raw,No
4,Maksim Timofeev,Максим Тимофеев,82.5,M,Pro Teen 14-16,1999,79.7,,,,,,,,,200,212.5,-230,212.5,212.5,D,Raw,No
5,Vladislav Shust,Владислав Шуст,100,M,Pro Sub-Juniors 17-19,1998,96.6,,,,,,,,,180,200,232.5,232.5,232.5,D,Raw,No
6,Vasiliy Starnakov,Василий Старнаков,67.5,M,Pro Sub-Juniors 17-19,1998,63.8,,,,,,,,,160,165,-170,165,165,D,Raw,No
7,Andrey Chemko,Андрей Чемко,100,M,Pro Sub-Juniors 17-19,1997,95.7,,,,,,,,,180,195,200,200,200,D,Raw,No
8,Denis Lyubchenko,Денис Любченко,75,M,Pro Sub-Juniors 17-19,1998,73.8,,,,,,,,,155,170,-177.5,170,170,D,Raw,No
DQ,Artur Asonov,Артур Асонов,67.5,M,Pro Sub-Juniors 17-19,1998,62.4,,,,,,,,,-190,-190,-190,,,D,Raw,No
1,Mikhail Gudach,Михаил Гудач,67.5,M,Pro Juniors 20-23,1992,66.3,150,160,-162.5,160,110,112.5,-115,112.5,210,-215,-215,210,482.5,SBD,Wraps,No
1,Ilya Korshun,Илья Коршун,82.5,M,Pro Juniors 20-23,1993,81.5,215,227.5,-240,227.5,150,157.5,160,160,235,247.5,260,260,647.5,SBD,Wraps,No
2,Stasis Yuknyavichyus,Стасис Юкнявичюс,82.5,M,Pro Juniors 20-23,1996,80.8,180,190,200,200,125,132.5,135,135,180,190,200,200,535,SBD,Wraps,No
1,Ivan Chumakov,Иван Чумаков,90,M,Pro Juniors 20-23,1994,88.3,-240,240,-250,240,175,-180,-180,175,240,252.5,-260,252.5,667.5,SBD,Wraps,No
2,Mikhail Chernushevich,Михаил Чернушевич,90,M,Pro Juniors 20-23,1996,88.4,-220,-230,230,230,-150,150,-160,150,-260,-260,260,260,640,SBD,Wraps,No
3,Artem Brechko,Артем Бречко,90,M,Pro Juniors 20-23,1996,89.6,-200,-200,200,200,110,115,-117.5,115,180,195,-210,195,510,SBD,Wraps,No
4,Pavel Panachev,Павел Паначев,90,M,Pro Juniors 20-23,1992,87.9,135,145,150,150,95,107.5,110,110,165,175,180,180,440,SBD,Wraps,No
1,Dmitriy Shirko,Дмитрий Ширко,100,M,Pro Juniors 20-23,1994,98.5,305,-315,,305,190,-200,-200,190,260,-270,,260,755,SBD,Wraps,No
2,Yustins Petinen,Юстинс Петинен,140,M,Pro Juniors 20-23,1996,136.8,280,295,-305,295,180,190,197.5,197.5,330,-345,-345,330,822.5,SBD,Wraps,No
1,Aleksandr Nosov,Александр Носов,60,M,Pro Teen 14-16,1999,58.7,,,,,92.5,97.5,100,100,,,,,100,B,Raw,No
2,Pavel Koryagin,Павел Корягин,60,M,Pro Juniors 20-23,1995,59.7,,,,,-92.5,92.5,100,100,,,,,100,B,Raw,No
3,Aleksandr Bolotnik,Александр Болотник,67.5,M,Pro Juniors 20-23,1992,66.6,,,,,-90,90,-97.5,90,,,,,90,B,Raw,No
DQ,Dmitriy Degtyaryov,Дмитрий Дегтярёв,67.5,M,Pro Juniors 20-23,1993,65.3,,,,,-115,-115,-115,,,,,,,B,Raw,No
1,Elvis Tagirov,Элвис Тагиров,82.5,M,Pro Juniors 20-23,1992,80,,,,,130,135,-137.5,135,,,,,135,B,Raw,No
2,Stasis Yuknyavichyus,Стасис Юкнявичюс,82.5,M,Pro Juniors 20-23,1996,80.8,,,,,,,135,135,,,,,135,B,Raw,No
3,Aleksey Yurkin,Алексей Юркин,82.5,M,Pro Juniors 20-23,1995,80,,,,,125,-132.5,-132.5,125,,,,,125,B,Raw,No
1,Vladislav Ilyushchits,Владислав Ильющиц,90,M,Pro Juniors 20-23,1992,88.2,,,,,,,195,195,,,,,195,B,Raw,No
2,Artyom Mikhnyuk,Артём Михнюк,90,M,Pro Juniors 20-23,1993,86.7,,,,,165,170,175,175,,,,,175,B,Raw,No
3,Sergey Bizyuk,Сергей Бизюк,90,M,Pro Juniors 20-23,1992,87.9,,,,,162.5,167.5,-172.5,167.5,,,,,167.5,B,Raw,No
1,Kirill Novik,Кирилл Новик,100,M,Pro Juniors 20-23,1993,93.8,,,,,185,192.5,-197.5,192.5,,,,,192.5,B,Raw,No
2,Dmitriy Shirko,Дмитрий Ширко,100,M,Pro Juniors 20-23,1994,98.5,,,,,,,190,190,,,,,190,B,Raw,No
3,Aleksey Melekh,Алексей Мелех,100,M,Pro Juniors 20-23,1993,92.9,,,,,172.5,177.5,-180,177.5,,,,,177.5,B,Raw,No
4,Kirill Zezyulchik,Кирилл Зезюльчик,100,M,Pro Juniors 20-23,1992,94.7,,,,,170,-180,-180,170,,,,,170,B,Raw,No
5,Andrey Matusevich,Андрей Матусевич,100,M,Pro Juniors 20-23,1996,93.9,,,,,150,-165,-165,150,,,,,150,B,Raw,No
6,Maksim Yanukov,Максим Януков,100,M,Pro Juniors 20-23,1994,96,,,,,140,-145,-145,140,,,,,140,B,Raw,No
1,Stanislav Schastnyy,Станислав Счастный,110,M,Pro Juniors 20-23,1993,107.4,,,,,232.5,240,245,245,,,,,245,B,Raw,No
2,Vadim Nesterov,Вадим Нестеров,110,M,Pro Juniors 20-23,1992,103.5,,,,,162.5,175,180,180,,,,,180,B,Raw,No
3,Dmitriy Rantsevich,Дмитрий Ранцевич,110,M,Pro Juniors 20-23,1992,106,,,,,-165,165,-170,165,,,,,165,B,Raw,No
1,Evgeniy Shavchenko,Евгений Шавченко,125,M,Pro Juniors 20-23,1993,120,,,,,,,,,300,320,335,335,335,D,Raw,No
2,Mikhail Chernushevich,Михаил Чернушевич,90,M,Pro Juniors 20-23,1992,88.4,,,,,,,,,270,-280,-280,270,270,D,Raw,No
3,Mikhail Gudach,Михаил Гудач,67.5,M,Pro Juniors 20-23,1992,66.3,,,,,,,,,215,-220,-220,215,215,D,Raw,No
1,Dmitriy Rumachik,Дмитрий Румачик,82.5,M,Pro Open,1982,81.8,225,235,-245,235,155,165,,165,250,260,267.5,267.5,667.5,SBD,Wraps,No
2,Ruslan Dragun,Руслан Драгун,75,M,Pro Open,1989,74.3,,,215,215,,,,155,,,245,245,615,SBD,Wraps,No
3,Ilya Korshun,Илья Коршун,82.5,M,Pro Open,1993,81.5,215,227.5,-240,227.5,150,157.5,160,160,235,247.5,260,260,647.5,SBD,Wraps,No
4,Dmitriy Pleskach,Дмитрий Плескач,82.5,M,Pro Open,1988,80.2,215,-225,-232.5,215,125,130,132.5,132.5,220,230,237.5,237.5,585,SBD,Wraps,No
5,Vasiliy Kolyadyonkov,Василий Колядёнков,82.5,M,Pro Open,1992,80.7,-180,180,-200,180,-110,125,135,135,220,230,235,235,550,SBD,Wraps,No
6,Valeriy Lutsko,Валерий Луцко,82.5,M,Pro Open,1990,82.5,-190,-190,190,190,115,125,132.5,132.5,200,210,222.5,222.5,545,SBD,Wraps,No
7,Artur Kasperovich,Артур Касперович,82.5,M,Pro Open,1986,80.9,170,-180,-180,170,120,130,135,135,185,200,212.5,212.5,517.5,SBD,Wraps,No
8,Aleksey Syrchin,Алексей Сырчин,82.5,M,Pro Open,1981,80.3,-177.5,177.5,185,185,125,-127.5,,125,180,190,200,200,510,SBD,Wraps,No
DQ,Ilya Tsvirko,Илья Цвирко,82.5,M,Pro Open,1990,80.2,175,-185,-185,175,-115,-115,,,,,,,,SBD,Wraps,No
1,Andrey Ulashchik,Андрей Улащик,90,M,Pro Open,1983,89.6,235,250,260,260,160,175,180,180,280,300,311,311,751,SBD,Wraps,No
2,Aleksand Galuza,Александ Галуза,90,M,Pro Open,1991,88.3,230,250,260,260,160,165,,165,245,260,270,270,695,SBD,Wraps,No
3,Sergey Filipovich,Сергей Филипович,90,M,Pro Open,1991,89.8,215,225,235,235,165,175,182.5,182.5,230,250,-270,250,667.5,SBD,Wraps,No
4,Andrey Kurbako,Андрей Курбако,90,M,Pro Open,1987,86,215,230,240,240,125,135,140,140,205,215,225,225,605,SBD,Wraps,No
5,Aleksandr Zalevskiy,Александр Залевский,90,M,Pro Open,1988,88.6,210,215,220,220,135,-142.5,,135,,215,225,225,580,SBD,Wraps,No
6,Evgeniy Orlovskiy,Евгений Орловский,90,M,Pro Open,1992,87.2,180,190,200,200,120,125,,125,200,210,220,220,545,SBD,Wraps,No
7,Maksim Korolevskiy,Максим Королевский,90,M,Pro Open,1990,89.8,165,175,-185,175,85,-95,100,100,180,195,202.5,202.5,477.5,SBD,Wraps,No
1,Dmitriy Shirko,Дмитрий Ширко,100,M,Pro Open,1994,98.5,,,305,305,,,,190,,,260,260,755,SBD,Wraps,No
2,Igor Shaytor,Игорь Шайтор,100,M,Pro Open,1981,99.3,230,-250,250,250,200,-205,,200,270,285,-307.5,285,735,SBD,Wraps,No
3,Leon Miroshnik,Леон Мирошник,100,M,Pro Open,1989,99.3,270,290,-305,290,145,150,152.5,152.5,280,285,-307.5,285,727.5,SBD,Wraps,No
4,Gennadiy Vever,Геннадий Вевер,100,M,Pro Open,1988,97.1,250,-260,-260,250,180,190,195,195,240,250,257.5,257.5,702.5,SBD,Wraps,No
5,Artem Budrik,Артем Будрик,100,M,Pro Open,1986,96.4,230,240,250,250,177.5,187.5,190,190,240,250,-262.5,250,690,SBD,Wraps,No
6,Viktor Beynya,Виктор Бейня,100,M,Pro Open,1986,97.2,230,-245,-250,230,180,-195,,180,250,260,275,275,685,SBD,Wraps,No
7,Valeriy Lyubetskiy,Валерий Любецкий,100,M,Pro Open,1988,98.7,220,230,245,245,150,-160,,150,250,265,-275,265,660,SBD,Wraps,No
8,Evgeniy Melnikov,Евгений Мельников,100,M,Pro Open,1984,98.7,212.5,-225,230,230,150,160,,160,250,257.5,,257.5,647.5,SBD,Wraps,No
9,Dmitriy Isaenko,Дмитрий Исаенко,100,M,Pro Open,1983,93.9,215,225,232.5,232.5,130,137.5,,137.5,235,-242.5,242.5,242.5,612.5,SBD,Wraps,No
10,Stanislav Turlo,Станислав Турло,100,M,Pro Open,1986,97.3,170,185,-200,185,125,127.5,130,130,215,230,255,255,570,SBD,Wraps,No
11,Vladimir Shurshukov,Владимир Шуршуков,100,M,Pro Open,1990,99.6,170,180,-195,180,115,120,,120,190,200,-205,200,500,SBD,Wraps,No
1,Sergey Zelyanin,Сергей Зелянин,110,M,Pro Open,1987,109,300,312.5,320,320,205,215,217.5,217.5,315,325,-330,325,862.5,SBD,Wraps,No
2,Vitaliy Gromyko,Виталий Громыко,110,M,Pro Open,1980,109.4,300,-320,330,330,200,205,,205,282.5,302.5,-330,302.5,837.5,SBD,Wraps,No
3,Edgars Ratnieks,Едгарс Ратниекс,110,M,Pro Open,1987,107.5,-290,290,-310,290,200,207.5,,207.5,310,-320,,310,807.5,SBD,Wraps,No
4,Vasiliy Mitrofanov,Василий Митрофанов,110,M,Pro Open,1987,107.2,270,285,295,295,170,182.5,190,190,270,280,290,290,775,SBD,Wraps,No
5,Aleksey Yoshchik,Алексей Ёщик,110,M,Pro Open,1992,105.3,270,285,-295,285,180,-192.5,,180,260,270,-285,270,735,SBD,Wraps,No
6,Ivan Akhmetov,Иван Ахметов,110,M,Pro Open,1990,106.4,-250,260,272.5,272.5,150,157.5,,157.5,290,302.5,-310,302.5,732.5,SBD,Wraps,No
7,Aleksandr Molotok,Александр Молоток,110,M,Pro Open,1990,103.6,240,255,270,270,185,190,,190,240,270,,270,730,SBD,Wraps,No
8,Toyly Annamuradov,Тойлы Аннамурадов,110,M,Pro Open,1995,100.1,-140,145,155,155,-140,140,,140,170,180,190,190,485,SBD,Wraps,No
DQ,Artur Amargadzhiev,Артур Амаргаджиев,110,M,Pro Open,1985,104.2,,,,,,,,,,,,,,SBD,Wraps,No
1,Aleksandr Alekseev,Александр Алексеев,125,M,Pro Open,1980,124.6,310,-330,-330,310,210,-220,220,220,340,360,-365,360,890,SBD,Wraps,No
2,Ruslan Shebeka,Руслан Шебека,140,M,Pro Open,1984,129.2,300,315,-330,315,190,200,,200,290,300,305,305,820,SBD,Wraps,No
3,Andrey Bulavskiy,Андрей Булавский,125,M,Pro Open,1983,113,210,220,225,225,155,165,170,170,260,280,300,300,695,SBD,Wraps,No
4,Andrey Fyodorov,Андрей Фёдоров,125,M,Pro Open,1989,110.1,-230,230,-240,230,140,150,155,155,230,245,255,255,640,SBD,Wraps,No
5,Anatoliy Tikhonov,Анатолий Тихонов,125,M,Pro Open,1990,118.2,210,220,-230,220,162.5,170,,170,220,230,240,240,630,SBD,Wraps,No
6,Denis Golikov,Денис Голиков,125,M,Pro Open,1978,113.5,-210,-210,210,210,140,150,160,160,230,240,250,250,620,SBD,Wraps,No
1,Vadim Marushkevich,Вадим Марушкевич,60,M,Pro Open,1996,57.8,,,,,115,-120,-120,115,,,,,115,B,Raw,No
2,Pavel Stosh,Павел Стош,67.5,M,Pro Open,1988,67.1,,,,,115,125,130,130,,,,,130,B,Raw,No
3,Gennadiy Shevchik,Геннадий Шевчик,67.5,M,Pro Open,1987,65.8,,,,,105,112.5,117.5,117.5,,,,,117.5,B,Raw,No
4,Aleksey Misun,Алексей Мисун,67.5,M,Pro Open,1990,67.2,,,,,112.5,115,-117.5,115,,,,,115,B,Raw,No
5,Aleksandr Nosov,Александр Носов,60,M,Pro Open,1999,58.7,,,,,92.5,97.5,100,100,,,,,100,B,Raw,No
6,Stanislav Podobed,Станислав Подобед,67.5,M,Pro Open,1991,65.6,,,,,-100,-100,100,100,,,,,100,B,Raw,No
1,Nikolay Bletko,Николай Блетько,75,M,Pro Open,1990,74.5,,,,,185,-195,-195,185,,,,,185,B,Raw,No
2,Aleksandr Valivashenko,Александр Валивашенко,75,M,Pro Open,1987,73.9,,,,,160,170,-185,170,,,,,170,B,Raw,No
3,Vadim Kostyukovich,Вадим Костюкович,75,M,Pro Open,1991,74.9,,,,,-160,160,-162.5,160,,,,,160,B,Raw,No
4,Artur Khomich,Артур Хомич,75,M,Pro Open,1991,73.4,,,,,-150,150,-160,150,,,,,150,B,Raw,No
5,Viktor Buzyuma,Виктор Бузюма,75,M,Pro Open,1990,73,,,,,-130,130,140,140,,,,,140,B,Raw,No
6,Igor Melnikov,Игорь Мельников,75,M,Pro Open,1982,74,,,,,140,-150,-160,140,,,,,140,B,Raw,No
7,Sergey Podolskiy,Сергей Подольский,75,M,Pro Open,1990,75,,,,,140,-160,-160,140,,,,,140,B,Raw,No
1,Aleksandr Rabinovich,Александр Рабинович,82.5,M,Pro Open,1967,80.85,,,,,,,180,180,,,,,180,B,Raw,No
2,Evgeniy Lukyanov,Евгений Лукьянов,82.5,M,Pro Open,1980,80.6,,,,,170,177.5,-182.5,177.5,,,,,177.5,B,Raw,No
3,Andrey Starovoytov,Андрей Старовойтов,82.5,M,Pro Open,1980,80.9,,,,,165,170,175,175,,,,,175,B,Raw,No
4,Aleksandr Gontorev,Александр Гонторев,82.5,M,Pro Open,1990,81.5,,,,,150,-160,-160,150,,,,,150,B,Raw,No
5,Aleksey Syrchin,Алексей Сырчин,82.5,M,Pro Open,1981,80.3,,,,,,,,125,,,,,125,B,Raw,No
DQ,Maksim Mazanik,Максим Мазаник,82.5,M,Pro Open,1988,79.2,,,,,-140,-140,-140,,,,,,,B,Raw,No
DQ,Evgeniy Kuritskiy,Евгений Курицкий,82.5,M,Pro Open,1982,80.2,,,,,-140,-140,-140,,,,,,,B,Raw,No
DQ,Vitaliy Porimon,Виталий Поримон,82.5,M,Pro Open,1986,81.9,,,,,-215,-215,,,,,,,,B,Raw,No
DQ,Oleg Tikhonovskiy,Олег Тихоновский,82.5,M,Pro Open,1978,82.4,,,,,-160,-160,,,,,,,,B,Raw,No
1,Valeriy Porimon,Валерий Поримон,90,M,Pro Open,1986,87.8,,,,,212.5,217.5,222.5,222.5,,,,,222.5,B,Raw,No
2,Vjačeslavs Letlans,Вячеслав Летлян,90,M,Pro Open,1987,85.9,,,,,210,215,220,220,,,,,220,B,Raw,No
3,Vladislav Ilyushchits,Владислав Ильющиц,90,M,Pro Open,1992,88.2,,,,,195,-202.5,-210,195,,,,,195,B,Raw,No
4,Ilya Skrobatov,Илья Скробатов,90,M,Pro Open,1983,88.3,,,,,180,187.5,-195,187.5,,,,,187.5,B,Raw,No
5,Daryush Matievskiy,Дарьюш Матиевский,90,M,Pro Open,1992,87.9,,,,,170,180,-185,180,,,,,180,B,Raw,No
6,Zakhar Krivoshlykov,Захар Кривошлыков,90,M,Pro Open,1989,89.6,,,,,170,180,-182.5,180,,,,,180,B,Raw,No
7,Aleksandr Kravchenok,Александр Кравченок,90,M,Pro Open,1989,88.2,,,,,170,175,-180,175,,,,,175,B,Raw,No
8,Vladimir Romanovich,Владимир Романович,90,M,Pro Open,1977,88.7,,,,,145,155,-165,155,,,,,155,B,Raw,No
9,Yuriy Novichenko,Юрий Новиченко,90,M,Pro Open,1990,89.7,,,,,145,152.5,-157.5,152.5,,,,,152.5,B,Raw,No
10,Denis Menyaylenko,Денис Меняйленко,90,M,Pro Open,1991,88.2,,,,,135,142.5,150,150,,,,,150,B,Raw,No
11,Aleksey Somov,Алексей Сомов,90,M,Pro Open,1985,87.5,,,,,-142.5,142.5,-167.5,142.5,,,,,142.5,B,Raw,No
12,Aleksandr Kostyuchenko,Александр Костюченко,90,M,Pro Open,1991,89,,,,,125,,,125,,,,,125,B,Raw,No
DQ,Vladislav Arkhipov,Владислав Архипов,90,M,Pro Open,1989,86.9,,,,,-175,-175,-175,,,,,,,B,Raw,No
1,Gennadiy Vever,Геннадий Вевер,100,M,Pro Open,1988,96.2,,,,,195,197.5,-200,197.5,,,,,197.5,B,Raw,No
2,Kirill Novik,Кирилл Новик,100,M,Pro Open,1993,96.2,,,,,,,192.5,192.5,,,,,192.5,B,Raw,No
3,Sergey Semukov,Сергей Семуков,100,M,Pro Open,1983,90.6,,,,,180,190,-195,190,,,,,190,B,Raw,No
4,Igor Korniets,Игорь Корниец,100,M,Pro Open,1991,95.6,,,,,185,190,-195,190,,,,,190,B,Raw,No
5,Aleksey Sinyavskiy,Алексей Синявский,100,M,Pro Open,1983,97.8,,,,,180,190,-202.5,190,,,,,190,B,Raw,No
6,Sergey Orekhov,Сергей Орехов,100,M,Pro Open,1984,99.3,,,,,190,-195,-195,190,,,,,190,B,Raw,No
7,Dmitriy Klevets,Дмитрий Клевец,100,M,Pro Open,1987,97.7,,,,,182.5,-190,-190,182.5,,,,,182.5,B,Raw,No
8,Pavel Soroka,Павел Сорока,100,M,Pro Open,1981,98.4,,,,,180,-185,,180,,,,,180,B,Raw,No
9,Evgeniy Akimov,Евгений Акимов,100,M,Pro Open,1987,98.7,,,,,175,180,-182.5,180,,,,,180,B,Raw,No
10,Mikhail Sidko,Михаил Сидько,100,M,Pro Open,1984,98.1,,,,,170,177.5,-182.5,177.5,,,,,177.5,B,Raw,No
11,Maksim Samusevich,Максим Самусевич,100,M,Pro Open,1986,97.4,,,,,170,-180,-180,170,,,,,170,B,Raw,No
12,Andrey Akimov,Андрей Акимов,100,M,Pro Open,1979,95.9,,,,,165,-170,,165,,,,,165,B,Raw,No
13,Maksim Filatov,Максим Филатов,100,M,Pro Open,1979,99.3,,,,,150,160,165,165,,,,,165,B,Raw,No
14,Dmitriy Kadyrmetov,Дмитрий Кадырметов,100,M,Pro Open,1991,97.4,,,,,160,-170,-170,160,,,,,160,B,Raw,No
15,Aleksandr Epichurin,Александр Епичурин,100,M,Pro Open,1979,98.4,,,,,155,-165,,155,,,,,155,B,Raw,No
16,Roman Chetyrbok,Роман Четырбок,100,M,Pro Open,1990,98.9,,,,,150,155,-160,155,,,,,155,B,Raw,No
17,Ruslan Alimov,Руслан Алімов,100,M,Pro Open,1975,99.4,,,,,150,155,-160,155,,,,,155,B,Raw,No
18,Dmitriy Tvyordyy,Дмитрий Твёрдый,100,M,Pro Open,1988,97.1,,,,,-140,150,,150,,,,,150,B,Raw,No
19,Aleksandr Knysh,Александр Кныш,100,M,Pro Open,1989,99.8,,,,,125,135,-150,135,,,,,135,B,Raw,No
DQ,Aleksandr Krasutskiy,Александр Красуцкий,100,M,Pro Open,1984,98.5,,,,,-145,-145,-145,,,,,,,B,Raw,No
1,Stanislav Schastnyy,Станислав Счастный,110,M,Pro Open,1993,107.4,,,,,232.5,240,245,245,,,,,245,B,Raw,No
2,Anton Mishkevich,Антон Мишкевич,110,M,Pro Open,1986,105.5,,,,,220,227.5,230,230,,,,,230,B,Raw,No
3,Yuriy Shlapakov,Юрий Шлапаков,110,M,Pro Open,1979,108,,,,,200,212.5,217.5,217.5,,,,,217.5,B,Raw,No
4,Artur Shpakovskiy,Артур Шпаковский,110,M,Pro Open,1988,102.5,,,,,197.5,202.5,207.5,207.5,,,,,207.5,B,Raw,No
5,Vasiliy Romanovskiy,Василий Романовский,110,M,Pro Open,1984,104.9,,,,,200,207.5,-215,207.5,,,,,207.5,B,Raw,No
6,Daynis Tkachovs,Дайнис Ткачовс,110,M,Pro Open,1990,107.4,,,,,,,200,200,,,,,200,B,Raw,No
7,Igor Gerasimchik,Игорь Герасимчик,110,M,Pro Open,1988,108.5,,,,,190,197.5,200,200,,,,,200,B,Raw,No
8,Sergey Baranov,Сергей Баранов,110,M,Pro Open,1982,107.3,,,,,170,180,185,185,,,,,185,B,Raw,No
9,Dmitriy Nikonovich,Дмитрий Никонович,110,M,Pro Open,1987,104.3,,,,,-180,180,-190,180,,,,,180,B,Raw,No
10,Yuriy Bilan,Юрий Билан,110,M,Pro Open,1983,104.4,,,,,170,180,-185,180,,,,,180,B,Raw,No
11,Andrey Zavilenskiy,Андрей Завиленский,110,M,Pro Open,1992,107.8,,,,,150,162.5,170,170,,,,,170,B,Raw,No
1,Aleksey Shatilo,Алексей Шатило,125,M,Pro Open,1986,110.1,,,,,240,250,-255,250,,,,,250,B,Raw,No
2,Andrey Ermolovich,Андрей Ермолович,125,M,Pro Open,1984,114,,,,,220,-227.5,-227.5,220,,,,,220,B,Raw,No
3,Andrey Lutsenko,Андрей Луценко,125,M,Pro Open,1980,111.7,,,,,-210,210,-220,210,,,,,210,B,Raw,No
4,Semen Shpakov,Семен Шпаков,125,M,Pro Open,1991,122.5,,,,,175,185,200,200,,,,,200,B,Raw,No
5,Pavel Zaytsev,Павел Зайцев,125,M,Pro Open,1985,123.4,,,,,-200,-200,200,200,,,,,200,B,Raw,No
DQ,Konstantin Rabizo,Константин Рабизо,125,M,Pro Open,1991,120.1,,,,,-175,-175,-175,,,,,,,B,Raw,No
1,Ruslan Dragun,Руслан Драгун,75,M,Pro Open,1989,74.3,,,,,,,,,230,245,-252.5,245,245,D,Raw,No
2,Ruslan Khilimonchik,Руслан Хилимончик,75,M,Pro Open,1977,74,,,,,,,,,,200,205,205,205,D,Raw,No
3,Artur Divin,Артур Дивин,75,M,Pro Open,1992,70.7,,,,,,,,,-170,170,180,180,180,D,Raw,No
1,Sergey Evseev,Сергей Евсеев,82.5,M,Pro Open,1990,81,,,,,,,,,230,255,262.5,262.5,262.5,D,Raw,No
2,Yaroslav Shklyarik,Ярослав Шклярик,82.5,M,Pro Open,1992,79.9,,,,,,,,,130,140,145,145,145,D,Raw,No
1,Andrey Ulashchik,Андрей Улащик,90,M,Pro Open,1983,89.6,,,,,,,,,280,300,311,311,311,D,Raw,No
2,Aleksandr Klimovich,Александр Климович,90,M,Pro Open,1980,89.3,,,,,,,,,280,292.5,310,310,310,D,Raw,No
3,Vadim Sniger,Вадим Снигер,90,M,Pro Open,1989,89,,,,,,,,,235,255,-270,255,255,D,Raw,No
4,Dmitriy Novitskiy,Дмитрий Новицкий,90,M,Pro Open,1990,84.3,,,,,,,,,205,215,222.5,222.5,222.5,D,Raw,No
5,Roman Panfilov,Роман Панфилов,90,M,Pro Open,1989,88.3,,,,,,,,,200,212.5,222.5,222.5,222.5,D,Raw,No
DQ,Evgeniy Gorbachev,Евгений Горбачев,90,M,Pro Open,1989,89,,,,,,,,,-250,-250,,,,D,Raw,No
1,Alexandr Kodis,Александр Кодис,100,M,Pro Open,1987,98.9,,,,,,,,,290,300,310,310,310,D,Raw,No
2,Mikhail Verbitskiy,Михаил Вербицкий,100,M,Pro Open,1951,93,,,,,,,,,250,270,-291,270,270,D,Raw,No
3,Evgeniy Melnikov,Евгений Мельников,100,M,Pro Open,1984,98.7,,,,,,,,,,,257.5,257.5,257.5,D,Raw,No
4,Dmitriy Kudyanov,Дмитрий Кудянов,100,M,Pro Open,1991,93.5,,,,,,,,,235,245,255,255,255,D,Raw,No
5,Vyacheslav Limantov,Вячеслав Лимантов,100,M,Pro Open,1990,95.4,,,,,,,,,232.5,-245,247.5,247.5,247.5,D,Raw,No
6,Dmitriy Tvyordyy,Дмитрий Твёрдый,100,M,Pro Open,1988,96.3,,,,,,,,,200,215,232.5,232.5,232.5,D,Raw,No
DQ,Mikhail Borbat,Михаил Борбат,100,M,Pro Open,1992,97.5,,,,,,,,,-250,-260,-260,,,D,Raw,No
1,Edgars Ratnieks,Едгарс Ратниекс,110,M,Pro Open,1987,107.5,,,,,,,,,,,310,310,310,D,Raw,No
2,Sergey Savenko,Сергей Савенко,110,M,Pro Open,1983,108.5,,,,,,,,,300,307.5,-312.5,307.5,307.5,D,Raw,No
3,Ivan Akhmetov,Иван Ахметов,110,M,Pro Open,1990,106.4,,,,,,,,,,,302.5,302.5,302.5,D,Raw,No
4,Dmitriy Zhuk,Дмитрий Жук,110,M,Pro Open,1982,108.8,,,,,,,,,240,260,-267.5,260,260,D,Raw,No
1,Aleksandr Alekseev,Александр Алексеев,125,M,Pro Open,1980,124.6,,,,,,,,,,,360,360,360,D,Raw,No
2,Nikolay Serikov,Николай Сериков,125,M,Pro Open,1982,124.7,,,,,,,,,320,345,,345,345,D,Raw,No
3,Maksim Vronskiy,Максим Вронский,125,M,Pro Open,1987,124.4,,,,,,,,,190,200,-215,200,200,D,Raw,No
