Place,Sex,Name,CyrillicName,BodyweightKg,Bench1Kg,Bench2Kg,Bench3Kg,Best3BenchKg,Bench4Kg,Deadlift1Kg,Deadlift2Kg,Deadlift3Kg,Best3DeadliftKg,Deadlift4Kg,TotalKg,WeightClassKg,Event,Equipment,Tested,Division,Age,BirthDate
1,M,Yuri Beglov,Юрий Беглов,78.55,110,115,120,120,,210,225,235,235,,355,82.5,BD,Raw,No,Pro Masters 50-54,54,1965-05-06
1,M,Oleg Goldobin,Олег Голдобин,86.9,100,115,-125,115,,190,-222.5,-222.5,190,,305,90,BD,Raw,Yes,Amateur Open,27,1991-09-25
1,M,Evgeniy Evdokimov,Евгений Евдокимов,120.55,180,190,-200,190,,250,260,,260,,450,125,BD,Raw,Yes,Amateur Open,21,1997-11-14
1,M,Evgeniy Bondarenko,Евгений Бондаренко,108.2,,,,,,270,290,300,300,,300,110,D,Raw,No,Pro Open,29,1990-01-26
2,M,Sergey Pechurin,Сергей Печурин,103.2,,,,,,250,270,290,290,,290,110,D,Raw,No,Pro Open,27,1992-06-11
1,F,Ulyana Pastukhova,Ульяна Пастухова,38.85,,,,,,67.5,77.5,87.5,87.5,,87.5,44,D,Raw,Yes,Amateur Teen 13,11,2007-11-01
1,F,Svetlana Pastukhova,Светлана Пастухова,55.1,,,,,,75,85,-95,85,,85,56,D,Raw,Yes,Amateur Open,36,1983-03-03
1,F,Darya Alekseeva,Дарья Алексеева,58.7,,,,,,75,85,95,95,,95,60,D,Raw,Yes,Amateur Teen 16-17,17,2002-02-13
1,F,Yana Krapiventseva,Яна Крапивенцева,72.4,,,,,,105,110,115,115,,115,75,D,Raw,Yes,Amateur Teen 18-19,18,2001-02-04
2,F,Anastasiya Alekseeva,Анастасия Алексеева,70.15,,,,,,75,85,95,95,,95,75,D,Raw,Yes,Amateur Teen 14-15,14,2005-06-26
1,M,Kirill Malykhin,Кирилл Малыхин,54.25,,,,,,110,120,-127.5,120,,120,56,D,Raw,Yes,Amateur Teen 16-17,16,2003-05-14
1,M,Aleksandr Orlov,Александр Орлов,57.9,,,,,,80,90,100,100,,100,60,D,Raw,Yes,Amateur Teen 14-15,15,2004-09-18
1,M,Maksim Popov,Максим Попов,64.45,,,,,,147.5,-167.5,-167.5,147.5,,147.5,67.5,D,Raw,Yes,Amateur Teen 14-15,15,2004-08-26
1,M,Artyom Plotnikov,Артём Плотников,68.8,,,,,,170,180,195,195,,195,75,D,Raw,Yes,Amateur Teen 16-17,16,2003-01-16
2,M,Dmitriy Tokar,Дмитрий Токарь,72.2,,,,,,140,145,150,150,,150,75,D,Raw,Yes,Amateur Teen 14-15,14,2004-11-26
1,M,Aleksey Grebnev,Алексей Гребнев,74.7,,,,,,190,200,-210,200,,200,75,D,Raw,Yes,Amateur Open,27,1992-08-13
2,M,Vitaliy Shulgin,Виталий Шульгин,75,,,,,,160,170,180,180,,180,75,D,Raw,Yes,Amateur Open,22,1997-09-22
1,M,Artemiy Byldin,Артемий Былдин,78.9,,,,,,140,150,157.5,157.5,,157.5,82.5,D,Raw,Yes,Amateur Teen 14-15,14,2005-07-04
1,M,Ruslan Khazykov,Руслан Хазыков,77.5,,,,,,187.5,-195,195,195,,195,82.5,D,Raw,Yes,Amateur Open,34,1985-02-27
2,M,Vladimir Moskalyov,Владимир Москалёв,77.65,,,,,,180,190,195,195,,195,82.5,D,Raw,Yes,Amateur Open,21,1998-05-15
3,M,Andrey Zamaraev,Андрей Замараев,78,,,,,,130,150,165,165,,165,82.5,D,Raw,Yes,Amateur Open,34,1984-12-18
1,M,Danil Semenikhin,Данил Семенихин,89.65,,,,,,120,130,-135,130,,130,90,D,Raw,Yes,Amateur Teen 16-17,17,2002-05-20
1,M,Konstantin Musienko,Константин Мусиенко,90,,,,,,260,-265,,260,,260,90,D,Raw,Yes,Amateur Open,30,1989-07-19
2,M,Vasiliy Polshikov,Василий Польшиков,83.3,,,,,,220,230,240,240,,240,90,D,Raw,Yes,Amateur Open,36,1982-09-27
3,M,Oleg Goldobin,Олег Голдобин,86.9,,,,,,190,-222.5,-222.5,190,,190,90,D,Raw,Yes,Amateur Open,27,1991-09-25
4,M,Vladislav Kovalev,Владислав Ковалев,87.15,,,,,,165,172.5,180,180,,180,90,D,Raw,Yes,Amateur Open,23,1996-04-22
5,M,Valeriy Skrynnik,Валерий Скрынник,89.35,,,,,,160,172.5,180,180,,180,90,D,Raw,Yes,Amateur Open,28,1991-01-25
1,M,Vyacheslav Ezhelenko,Вячеслав Ежеленко,88.7,,,,,,100,120,130,130,,130,90,D,Raw,Yes,Amateur Masters 45-49,47,1972-07-30
1,M,Nikolay Lavrenov,Николай Лавренов,97.2,,,,,,225,235,240,240,,240,100,D,Raw,Yes,Amateur Open,31,1988-05-21
2,M,Vladimir Dudnik,Владимир Дудник,93.85,,,,,,145,160,-170,160,,160,100,D,Raw,Yes,Amateur Open,36,1982-12-12
1,M,Roman Kalashnikov,Роман Калашников,100.75,,,,,,220,235,245,245,,245,110,D,Raw,Yes,Amateur Open,25,1994-02-20
1,M,Andrey Kildyushev,Андрей Кильдюшев,75,200,210,-220,210,,,,,,,210,75,B,Multi-ply,No,Pro Open,31,1988-08-04
1,F,Yana Krapiventseva,Яна Крапивенцева,72.4,40,42.5,45,45,,,,,,,45,75,B,Raw,Yes,Amateur Teen 18-19,18,2001-02-04
1,M,Gordey Belyy,Гордей Белый,58.5,87.5,-92.5,-97.5,87.5,,,,,,,87.5,60,B,Raw,Yes,Amateur Teen 16-17,16,2002-11-23
2,M,Aleksandr Orlov,Александр Орлов,57.9,50,-60,-60,50,,,,,,,50,60,B,Raw,Yes,Amateur Teen 14-15,15,2004-09-18
1,M,Stanislav Tudor,Станислав Тудор,58.8,135,142.5,147.5,147.5,,,,,,,147.5,60,B,Raw,Yes,Amateur Open,34,1985-06-03
1,M,Stanislav Grechko,Станислав Гречко,65.85,70,100,105,105,,,,,,,105,67.5,B,Raw,Yes,Amateur Teen 18-19,19,2000-04-24
2,M,Maksim Kaskov,Максим Каськов,63,75,80,85,85,,,,,,,85,67.5,B,Raw,Yes,Amateur Teen 18-19,19,2000-07-23
1,M,Aleksey Potapov,Алексей Потапов,66.9,95,105,110,110,,,,,,,110,67.5,B,Raw,Yes,Amateur Open,22,1997-06-04
1,M,Aleksandr Ovcharov,Александр Овчаров,71.5,120,125,127.5,127.5,,,,,,,127.5,75,B,Raw,Yes,Amateur Teen 18-19,19,2000-06-20
2,M,Viktor Voloshenko,Виктор Волошенко,74.7,105,110,-112.5,110,,,,,,,110,75,B,Raw,Yes,Amateur Teen 14-15,15,2004-07-31
DQ,M,Dmitriy Giryavenko,Дмитрий Гирявенко,69.1,-82.5,-87.5,-87.5,,,,,,,,,75,B,Raw,Yes,Amateur Teen 16-17,16,2003-04-27
1,M,Vitaliy Shulgin,Виталий Шульгин,75,120,130,135,135,,,,,,,135,75,B,Raw,Yes,Amateur Open,22,1997-09-22
2,M,Aleksey Grebnev,Алексей Гребнев,74.7,125,130,-137.5,130,,,,,,,130,75,B,Raw,Yes,Amateur Open,27,1992-08-13
3,M,Dmitriy Kosyuta,Дмитрий Косюта,74.9,100,-105,-107.5,100,,,,,,,100,75,B,Raw,Yes,Amateur Open,25,1994-09-08
1,M,Artyom Bugaev,Артём Бугаев,76.3,130,137.5,142.5,142.5,,,,,,,142.5,82.5,B,Raw,Yes,Amateur Teen 18-19,19,2000-01-26
2,M,Artyom Odintsov,Артём Одинцов,75.1,80,85,90,90,,,,,,,90,82.5,B,Raw,Yes,Amateur Teen 14-15,14,2004-11-12
1,M,Aleksandr Chernykh,Александр Черных,79.75,110,-130,130,130,,,,,,,130,82.5,B,Raw,Yes,Amateur Open,21,1997-11-20
1,M,Fedor Korostelyov,Федор Коростелёв,86.5,160,165,170,170,,,,,,,170,90,B,Raw,Yes,Amateur Open,35,1984-07-20
2,M,Dmitriy Zhinkin,Дмитрий Жинкин,89.1,140,147.5,-155,147.5,,,,,,,147.5,90,B,Raw,Yes,Amateur Open,39,1980-07-01
3,M,Konstantin Musienko,Константин Мусиенко,90,140,-145,145,145,,,,,,,145,90,B,Raw,Yes,Amateur Open,30,1989-07-19
4,M,Yaroslav Shapovalov,Ярослав Шаповалов,88.7,125,135,142.5,142.5,,,,,,,142.5,90,B,Raw,Yes,Amateur Open,26,1993-03-08
5,M,Sergey Kolomytsev,Сергей Коломыцев,88.1,125,130,132.5,132.5,,,,,,,132.5,90,B,Raw,Yes,Amateur Open,30,1988-12-06
6,M,Andrey Dyukanov,Андрей Дюканов,90,120,-122.5,125,125,,,,,,,125,90,B,Raw,Yes,Amateur Open,24,1995-01-09
1,M,Sergey Giryavenko,Сергей Гирявенко,95.1,140,145,150,150,,,,,,,150,100,B,Raw,Yes,Amateur Masters 40-44,41,1978-01-07
1,M,Sergey Agarkov,Сергей Агарков,120.55,-150,150,160,160,,,,,,,160,125,B,Raw,Yes,Amateur Masters 45-49,47,1972-06-02
