Place,Name,BirthYear,Country,BodyweightKg,Squat1Kg,Squat2Kg,Squat3Kg,Best3SquatKg,Bench1Kg,Bench2Kg,Bench3Kg,Best3BenchKg,Deadlift1Kg,Deadlift2Kg,Deadlift3Kg,Best3DeadliftKg,TotalKg,WeightClassKg,Division,Event,Sex,Equipment
1,Vitaly Shevkunov,1996,Russia,52.95,-170,175,180,180,110,115,-120,115,150,165,170,170,465,53,Sub-Juniors,SBD,M,Single-ply
2,Egidijus Valčiukas,1998,Lithuania,52.05,150,160,175,175,100,110,117.5,117.5,110,122.5,130,130,422.5,53,Sub-Juniors,SBD,M,Single-ply
1,Dmitry Chubarov,1996,Russia,58.6,180,195,-205,195,110,117.5,-125,117.5,180,190,-195,190,502.5,59,Sub-Juniors,SBD,M,Single-ply
2,Lukas Bugys,1997,Lithuania,57.65,135,-142.5,142.5,142.5,90,97.5,100,100,135,145,150,150,392.5,59,Sub-Juniors,SBD,M,Single-ply
3,Pavel Rusetski,1998,Belarus,58,137.5,-140,140,140,85,-90,90,90,142.5,155,-165,155,385,59,Sub-Juniors,SBD,M,Single-ply
1,Vladislav Chornyi,1997,Ukraine,64.75,220,230,-237.5,230,107.5,115,117.5,117.5,215,220,-230,220,567.5,66,Sub-Juniors,SBD,M,Single-ply
2,Ihar Yuazapchuk,1996,Belarus,64.45,190,205,-210,205,135,-145,145,145,205,215,-227.5,215,565,66,Sub-Juniors,SBD,M,Single-ply
3,Iliy Sandakov,1996,Russia,65.9,175,195,205,205,-120,120,-130,120,180,207.5,-217.5,207.5,532.5,66,Sub-Juniors,SBD,M,Single-ply
1,Klaudijus Malevskis,1996,Lithuania,73.25,225,235,242.5,242.5,165,-175,-175,165,215,225,-230,225,632.5,74,Sub-Juniors,SBD,M,Single-ply
2,Vladislav Sheruntaev,1997,Russia,71.35,230,-240,240,240,140,-150,150,150,220,232.5,-242.5,232.5,622.5,74,Sub-Juniors,SBD,M,Single-ply
3,Eren Kayadan,1996,Germany,71.35,192.5,205,-215,205,150,157.5,165,165,200,-215,215,215,585,74,Sub-Juniors,SBD,M,Single-ply
4,Dávid Rácz',1996,Hungary,73.45,205,220,-225,220,117.5,130,-160,130,210,222.5,-237.5,222.5,572.5,74,Sub-Juniors,SBD,M,Single-ply
5,Krystian Kleszczewski,1997,Germany,72,180,-187.5,187.5,187.5,110,117.5,-125,117.5,197.5,-205,205,205,510,74,Sub-Juniors,SBD,M,Single-ply
1,Oleksandr Rubets,1996,Ukraine,82.5,-275,275,-287.5,275,175,185,-190,185,242.5,-260,-260,242.5,702.5,83,Sub-Juniors,SBD,M,Single-ply
2,Nikita Mikhaylov,1996,Russia,82.85,-260,260,275,275,170,180,-190,180,230,240,-250,240,695,83,Sub-Juniors,SBD,M,Single-ply
3,Martin Engquist,1996,Sweden,82.35,-270,270,280,280,-140,140,-145,140,250,-270,-282.5,250,670,83,Sub-Juniors,SBD,M,Single-ply
4,Mickel Dahl Flensborg,1996,Denmark,81.05,-215,215,-225,215,130,135,-140,135,245,250,-260,250,600,83,Sub-Juniors,SBD,M,Single-ply
5,Andri-Erik Kulaviir,1998,Estonia,82.55,210,220,-225,220,125,-132.5,132.5,132.5,205,220,-225,220,572.5,83,Sub-Juniors,SBD,M,Single-ply
1,Danylo Kovalov,1996,Ukraine,92.05,320,-340,,320,170,180,187.5,187.5,270,285,-302.5,285,792.5,93,Sub-Juniors,SBD,M,Single-ply
2,Andrey Nikiforov,1996,Russia,91.4,235,245,252.5,252.5,172.5,182.5,-187.5,182.5,242.5,255,-260,255,690,93,Sub-Juniors,SBD,M,Single-ply
3,Franz Graaf,1996,Germany,90.35,-245,250,262.5,262.5,-177.5,177.5,-182.5,177.5,240,247.5,-252.5,247.5,687.5,93,Sub-Juniors,SBD,M,Single-ply
4,Augustinas Pimpe,1996,Lithuania,90.05,220,-230,-240,220,160,167.5,-175,167.5,230,242.5,-255,242.5,630,93,Sub-Juniors,SBD,M,Single-ply
5,Agoston Flekacs,1996,Hungary,91.35,185,210,-220,210,120,130,135,135,225,240,-255,240,585,93,Sub-Juniors,SBD,M,Single-ply
1,Andrey Zubenko,1997,Russia,100.1,250,-265,-265,250,180,190,195,195,250,-265,-265,250,695,105,Sub-Juniors,SBD,M,Single-ply
2,Laurynas Žukauskas,1996,Lithuania,93.25,230,240,250,250,160,170,-172.5,170,230,-240,-240,230,650,105,Sub-Juniors,SBD,M,Single-ply
3,Yevgen Svyatenko,1998,Ukraine,102.25,240,-255,-267.5,240,150,165,172.5,172.5,200,215,-232.5,215,627.5,105,Sub-Juniors,SBD,M,Single-ply
1,Evgeny Yagovitin,1996,Russia,107.4,250,270,285,285,150,-160,165,165,240,265,-280,265,715,120,Sub-Juniors,SBD,M,Single-ply
2,Jonasz Plugowski,1996,Poland,106.35,190,215,235,235,110,125,135,135,210,230,237.5,237.5,607.5,120,Sub-Juniors,SBD,M,Single-ply
1,Vladislav Nemov,1996,Russia,121.45,265,285,300,300,165,-195,200,200,250,270,,270,770,120+,Sub-Juniors,SBD,M,Single-ply
1,Valentin Pellerin,1994,France,52.65,150,157.5,-162.5,157.5,-97.5,-97.5,97.5,97.5,150,162.5,172.5,172.5,427.5,53,Juniors,SBD,M,Single-ply
2,Andrey Rein,1991,Russia,52.6,140,150,157.5,157.5,95,100,102.5,102.5,152.5,162.5,-172.5,162.5,422.5,53,Juniors,SBD,M,Single-ply
1,Konstantin Makarov,1991,Russia,58.7,200,220,-247.5,220,140,147.5,-152.5,147.5,180,220,-232.5,220,587.5,59,Juniors,SBD,M,Single-ply
1,Ilya Mishin,1995,Russia,65.7,-250,-260,260,260,140,145,-152.5,145,-250,257.5,-260,257.5,662.5,66,Juniors,SBD,M,Single-ply
2,Vichet Duong,1993,France,66,-255,255,-270,255,150,160,165,165,242.5,-255,-255,242.5,662.5,66,Juniors,SBD,M,Single-ply
3,Vince Somodi,1995,Hungary,64.15,180,197.5,-205,197.5,90,120,125,125,-190,190,210,210,532.5,66,Juniors,SBD,M,Single-ply
1,Alexander Eriksson,1994,Sweden,73.6,270,-280,280,280,175,180,185,185,250,272.5,287.5,287.5,752.5,74,Juniors,SBD,M,Single-ply
2,Ilya Kuznetsov,1992,Russia,73.7,305,315,-322.5,315,187.5,192.5,197.5,197.5,240,-245,-245,240,752.5,74,Juniors,SBD,M,Single-ply
3,Harri Olak,1992,Estonia,73.65,-250,-250,250,250,-162.5,162.5,170,170,265,275,290,290,710,74,Juniors,SBD,M,Single-ply
4,Paulius Pupinis,1994,Lithuania,70.1,240,-250,250,250,160,-165,-165,160,240,-250,-250,240,650,74,Juniors,SBD,M,Single-ply
5,Marius Milla,1993,Germany,73.1,232.5,245,-252.5,245,-150,150,157.5,157.5,245,-260,-260,245,647.5,74,Juniors,SBD,M,Single-ply
6,Patrick Fuderer,1991,Austria,73.55,-250,250,-260,250,155,-160,-162.5,155,190,-205,-205,190,595,74,Juniors,SBD,M,Single-ply
7,Max Hampel,1993,Germany,67.5,200,210,220,220,135,-142.5,-142.5,135,190,-205,205,205,560,74,Juniors,SBD,M,Single-ply
1,Henrik Fransson,1991,Sweden,82.85,285,295,300,300,220,227.5,232.5,232.5,270,282.5,285,285,817.5,83,Juniors,SBD,M,Single-ply
2,Vincent Curth,1991,Germany,80.65,-320,320,330,330,190,200,210,210,-230,235,252.5,252.5,792.5,83,Juniors,SBD,M,Single-ply
3,Alexander Bukharov,1991,Russia,82.25,290,305,312.5,312.5,225,-232.5,-232.5,225,-250,250,-257.5,250,787.5,83,Juniors,SBD,M,Single-ply
4,Tomáš Pavliš,1993,Czechia,81.45,-280,280,295,295,160,-165,165,165,280,292.5,-297.5,292.5,752.5,83,Juniors,SBD,M,Single-ply
5,Eugenijus Pyragas,1993,Lithuania,82.25,250,260,270,270,190,200,-205,200,270,282.5,-287.5,282.5,752.5,83,Juniors,SBD,M,Single-ply
6,Raymond Czegenyi,1994,Hungary,79.35,-250,-250,250,250,147.5,160,-167.5,160,235,-242.5,-250,235,645,83,Juniors,SBD,M,Single-ply
7,Mantas Kaniusas,1994,Lithuania,81.6,-225,225,-240,225,200,205,-212.5,205,195,215,,215,645,83,Juniors,SBD,M,Single-ply
DQ,Marcin Kapala,1992,Poland,82.55,-270,-270,-270,,160,167.5,-172.5,167.5,,,,,,83,Juniors,SBD,M,Single-ply
1,Julian Lysvand,1991,Norway,92.5,290,300,307.5,307.5,200,210,217.5,217.5,-295,295,300,300,825,93,Juniors,SBD,M,Single-ply
2,Andrey Kruk,1993,Russia,92.5,315,325,335,335,187.5,195,202.5,202.5,267.5,272.5,285,285,822.5,93,Juniors,SBD,M,Single-ply
3,Sascha Stendebach,1991,Germany,89.65,260,270,-280,270,190,202.5,210,210,300,305,310,310,790,93,Juniors,SBD,M,Single-ply
4,Peter Horvath,1991,Hungary,91.25,285,307.5,317.5,317.5,165,175,182.5,182.5,282.5,-292.5,-292.5,282.5,782.5,93,Juniors,SBD,M,Single-ply
5,Lasse B. Ahrendsen,1994,Denmark,89.85,287.5,295,-300,295,-187.5,-187.5,187.5,187.5,282.5,-290,-295,282.5,765,93,Juniors,SBD,M,Single-ply
6,Einar Örn Guðnason,1991,Iceland,92.45,280,290,-300,290,200,207.5,212.5,212.5,-250,255,-272.5,255,757.5,93,Juniors,SBD,M,Single-ply
7,Jokūbas Stasiulis,1995,Lithuania,92.3,260,270,280,280,200,-207.5,-207.5,200,260,-275,-275,260,740,93,Juniors,SBD,M,Single-ply
DQ,Marks Riekstins,1993,Latvia,92.5,-285,285,-292.5,285,215,222.5,-227.5,222.5,-275,-275,-275,,,93,Juniors,SBD,M,Single-ply
1,Alex-Edward Raus,1992,Estonia,104.85,375,390,-401.5,390,250,255,-260,255,337.5,347.5,-357.5,347.5,992.5,105,Juniors,SBD,M,Single-ply
2,Jan Joskowski,1991,Poland,103.4,320,330,340,340,-225,225,230,230,-315,315,335,335,905,105,Juniors,SBD,M,Single-ply
3,Andrey Bystrov,1991,Russia,104.55,315,-325,325,325,232.5,237.5,-247.5,237.5,305,-315,315,315,877.5,105,Juniors,SBD,M,Single-ply
4,Dominik Pahl,1992,Germany,104.45,330,342.5,-355,342.5,-202.5,-202.5,202.5,202.5,285,292.5,-307.5,292.5,837.5,105,Juniors,SBD,M,Single-ply
5,Erik Fredriksen,1992,Norway,99,310,-325,-325,310,235,245,250,250,265,275,-280,275,835,105,Juniors,SBD,M,Single-ply
1,Sergey Usov,1993,Russia,118.95,365,385,395,395,285,295,302.5,302.5,325,337.5,350,350,1047.5,120,Juniors,SBD,M,Single-ply
2,Róbert Valach,1992,Slovakia,118.9,340,-365,365,365,-220,220,-230,220,320,332.5,337.5,337.5,922.5,120,Juniors,SBD,M,Single-ply
3,Filip Sobotka,1993,Czechia,116.15,345,360,370,370,240,250,260,260,270,285,-300,285,915,120,Juniors,SBD,M,Single-ply
4,Kevin Jäger #1,1995,Germany,119.25,295,315,-330,315,275,295,303,303,235,252.5,-282.5,252.5,870.5,120,Juniors,SBD,M,Single-ply
DQ,Ziyed Badreddine,1991,Netherlands,119.65,307.5,320,325,325,-207.5,-207.5,-207.5,,285,295,-302.5,295,,120,Juniors,SBD,M,Single-ply
1,David Lupáč,1991,Czechia,141.65,410,430,442.5,442.5,275,285,290,290,300,320,-332.5,320,1052.5,120+,Juniors,SBD,M,Single-ply
2,Niklas Zellin,1991,Norway,138.55,385,-395,,385,280,287.5,290,290,302.5,320,-335,320,995,120+,Juniors,SBD,M,Single-ply
3,Júlían J.K. Jóhannsson,1993,Iceland,146.25,340,352.5,362.5,362.5,-260,260,-267.5,260,320,-337.5,-337.5,320,942.5,120+,Juniors,SBD,M,Single-ply
4,Vasiliy Malashkin,1992,Russia,136.95,320,330,340,340,250,260,267.5,267.5,320,-335,-335,320,927.5,120+,Juniors,SBD,M,Single-ply
1,Ekaterina Zhiltcova,1996,Russia,42.4,70,80,85,85,42.5,47.5,52.5,52.5,80,102.5,107.5,107.5,245,43,Sub-Juniors,SBD,F,Single-ply
2,Tetyana Shlopko,1996,Ukraine,42.45,95,100,-112.5,100,45,50,-55,50,95,-105,-105,95,245,43,Sub-Juniors,SBD,F,Single-ply
1,Veronika Oglezneva,1997,Russia,46.45,-135,-135,135,135,75,80,85,85,125,132.5,137.5,137.5,357.5,47,Sub-Juniors,SBD,F,Single-ply
1,Marlene Sabathy,1996,Austria,51.1,100,110,120,120,50,55,-60,55,75,85,-100,85,260,52,Sub-Juniors,SBD,F,Single-ply
DQ,Tatiana Cmolekho,1996,Russia,50.7,-152.5,-152.5,-152.5,,100,107.5,112.5,112.5,112.5,122.5,130,130,,52,Sub-Juniors,SBD,F,Single-ply
1,Kristina Alexeeva,1997,Russia,56.9,-160,-160,160,160,-72.5,-72.5,72.5,72.5,130,-142.5,142.5,142.5,375,57,Sub-Juniors,SBD,F,Single-ply
2,Katinka van Baalen,1996,Netherlands,56.6,125,-132.5,-132.5,125,80,85,-90,85,135,142.5,147.5,147.5,357.5,57,Sub-Juniors,SBD,F,Single-ply
3,Krystsina Shlykovich,1998,Belarus,54.7,100,115,-125,115,47.5,52.5,57.5,57.5,105,122.5,-130,122.5,295,57,Sub-Juniors,SBD,F,Single-ply
1,Majken Hansen,1996,Denmark,62.8,-150,150,155,155,-85,85,-87.5,85,160,162.5,170,170,410,63,Sub-Juniors,SBD,F,Single-ply
2,Matilda Vilmar,1996,Sweden,62.45,-147.5,147.5,157.5,157.5,100,-105,-105,100,137.5,142.5,150,150,407.5,63,Sub-Juniors,SBD,F,Single-ply
3,Elina Hasanova,1996,Russia,59.55,-152.5,152.5,157.5,157.5,85,-90,-90,85,130,-140,-140,130,372.5,63,Sub-Juniors,SBD,F,Single-ply
1,Alina Davletshina,1996,Russia,69.3,125,140,150,150,90,97.5,102.5,102.5,125,140,155,155,407.5,72,Sub-Juniors,SBD,F,Single-ply
1,Anastasia Pavlova,1996,Russia,83.6,165,180,190,190,105,112.5,117.5,117.5,175,192.5,200,200,507.5,84,Sub-Juniors,SBD,F,Single-ply
1,Dorottya Haklik,1996,Hungary,86.6,-160,160,175,175,65,87.5,-92.5,87.5,150,165,-175,165,427.5,84+,Sub-Juniors,SBD,F,Single-ply
2,Ekaterina Sherina,1999,Russia,85.8,115,122.5,130,130,60,70,75,75,110,122.5,130,130,335,84+,Sub-Juniors,SBD,F,Single-ply
1,Ekaterina Alikina,1993,Russia,42.3,115,-125,125,125,50,55,-60,55,110,120,127.5,127.5,307.5,43,Juniors,SBD,F,Single-ply
1,Celine Grillet,1991,France,46.65,142.5,147.5,-152.5,147.5,87.5,92.5,-100,92.5,140,147.5,-150,147.5,387.5,47,Juniors,SBD,F,Single-ply
2,Maria Burova,1995,Russia,46.6,112.5,117.5,122.5,122.5,65,70,72.5,72.5,120,127.5,,127.5,322.5,47,Juniors,SBD,F,Single-ply
3,Mariana Kolyadenko,1991,Ukraine,46.95,110,117.5,-125,117.5,55,60,65,65,85,95,100,100,282.5,47,Juniors,SBD,F,Single-ply
1,Inna Filimonova #2,1994,Russia,51.1,160,167.5,172.5,172.5,95,100,105,105,135,145,150,150,427.5,52,Juniors,SBD,F,Single-ply
2,Mareen Schmeelke,1991,Germany,51.65,155,160,165,165,82.5,87.5,-90,87.5,130,142.5,-147.5,142.5,395,52,Juniors,SBD,F,Single-ply
3,Karen Hesthammer,1994,Norway,51.3,140,145,150,150,72.5,77.5,-82.5,77.5,135,142.5,145,145,372.5,52,Juniors,SBD,F,Single-ply
4,Mariya Ilnytska,1995,Ukraine,51.75,130,140,-145,140,82.5,87.5,-90,87.5,137.5,145,-147.5,145,372.5,52,Juniors,SBD,F,Single-ply
1,Olimpia Felinska,1992,Poland,56.95,155,165,-170,165,85,90,95,95,137.5,145,150,150,410,57,Juniors,SBD,F,Single-ply
2,Kine Blummenfelt,1991,Norway,55.8,-155,155,160,160,-72.5,72.5,75,75,-150,150,160,160,395,57,Juniors,SBD,F,Single-ply
3,Milda Brūverė,1994,Lithuania,56.75,-132.5,132.5,-145,132.5,60,67.5,72.5,72.5,130,137.5,145,145,350,57,Juniors,SBD,F,Single-ply
1,Dina Batalova,1992,Russia,59.2,170,180,-187.5,180,105,110,115,115,157.5,162.5,-165,162.5,457.5,63,Juniors,SBD,F,Single-ply
2,Erle Engmark,1993,Norway,61.85,152.5,157.5,160,160,97.5,102.5,107.5,107.5,170,180,-192.5,180,447.5,63,Juniors,SBD,F,Single-ply
3,Lillann Haaland,1994,Norway,62.3,-160,160,-165,160,105,110,112.5,112.5,152.5,157.5,165,165,437.5,63,Juniors,SBD,F,Single-ply
4,Iveta Jurčíková,1992,Slovakia,62.7,155,162.5,165,165,-110,110,-115,110,-145,145,-157.5,145,420,63,Juniors,SBD,F,Single-ply
5,Camilla Thomsen,1992,Iceland,62.65,135,-142.5,-142.5,135,80,-82.5,-82.5,80,147.5,155,-165,155,370,63,Juniors,SBD,F,Single-ply
6,Kateřina Hýblerová,1991,Czechia,61.15,115,122.5,127.5,127.5,65,70,75,75,110,115,-117.5,115,317.5,63,Juniors,SBD,F,Single-ply
1,Elina Ronnquist,1992,Sweden,71.45,197.5,207.5,212.5,212.5,115,120,122.5,122.5,177.5,187.5,195,195,530,72,Juniors,SBD,F,Single-ply
2,Marie Tunroth,1992,Sweden,70.85,185,195,202.5,202.5,110,115,-117.5,115,185,190,197.5,197.5,515,72,Juniors,SBD,F,Single-ply
3,Ekaterina Yashkina,1992,Russia,69.65,180,-185,-185,180,120,127.5,132.5,132.5,-182.5,-182.5,182.5,182.5,495,72,Juniors,SBD,F,Single-ply
4,Arnhildur Anna Árnadóttir,1992,Iceland,71.1,-180,185,190,190,-95,95,-100,95,165,-170,-170,165,450,72,Juniors,SBD,F,Single-ply
1,Inger-Johanne Ruud,1991,Norway,83.2,225,232.5,-237.5,232.5,135,-140,140,140,195,205,-207.5,205,577.5,84,Juniors,SBD,F,Single-ply
2,Ekaterina Baranova,1992,Russia,83.45,210,222.5,230,230,-145,150,157.5,157.5,175,185,-192.5,185,572.5,84,Juniors,SBD,F,Single-ply
3,Elena Ovcharova,1992,Russia,81.3,190,200,212.5,212.5,110,120,125,125,155,162.5,-165,162.5,500,84,Juniors,SBD,F,Single-ply
4,Kathrine Hoås,1992,Norway,77.55,182.5,-192.5,-192.5,182.5,130,-135,135,135,170,-182.5,-182.5,170,487.5,84,Juniors,SBD,F,Single-ply
5,Kamila Kasperska,1992,Poland,74,180,190,-200,190,85,90,-95,90,150,160,-170,160,440,84,Juniors,SBD,F,Single-ply
DQ,Małgorzata Mazur,1995,Poland,77.7,-160,-160,-160,,95,-100,100,100,150,160,-162.5,160,,84,Juniors,SBD,F,Single-ply
1,Maria Koteles,1992,Hungary,138,140,200,,200,120,-170,170,170,160,177.5,-187.5,177.5,547.5,84+,Juniors,SBD,F,Single-ply
2,Ekaterina Kotova,1993,Russia,85.8,170,-182.5,190,190,120,127.5,132.5,132.5,150,160,165,165,487.5,84+,Juniors,SBD,F,Single-ply
3,Karolina Ruta,1992,Poland,86.2,175,185,190,190,75,80,-85,80,170,185,192.5,192.5,462.5,84+,Juniors,SBD,F,Single-ply
4,Monika Lovas,1994,Hungary,111.8,165,-175,-175,165,112.5,125,-145,125,155,165,172.5,172.5,462.5,84+,Juniors,SBD,F,Single-ply
