Name,Sex,Age,Division,Equipment,BodyweightKg,WeightClassKg,Squat1Kg,Squat2Kg,Squat3Kg,Best3SquatKg,Bench1Kg,Bench2Kg,Bench3Kg,Best3BenchKg,Deadlift1Kg,Deadlift2Kg,Deadlift3Kg,Best3DeadliftKg,TotalKg,Event,Place
Sherie Reed,F,39,F_O_CR_ABPU,Wraps,89.7,90,120,130,,130,62.5,-67.5,-67.5,62.5,127.5,137.5,-142.5,137.5,330,SBD,1
Savannah Thomas-Millett,F,18,F_T3_R_ABPU,Raw,96.4,90+,100,-115,120,120,50,65,-70,65,110,125,-152.5,125,310,SBD,1
Sam Taylor #1,F,41,F_M1_R_BPU,Raw,92.4,90+,140,150,-160,150,60,70,85,85,140,150,165,165,400,SBD,1
Sue Taylor-Franklin,F,51,F_M3_R_BPU,Raw,94.3,90+,,,,,,,,,160,170,185,185,185,D,1
Jordan Lee Thomas,M,18,M_T3_CR_ABPU,Wraps,80.5,82.5,145,152.5,155,155,95,102.5,110,110,175,185,192.5,192.5,457.5,SBD,1
Rory Davies,M,20,M_J_CR_BPU,Wraps,89.2,90,180,200,220,220,120,135,-140,135,170,190,210,210,565,SBD,1
Cameron Reade,M,21,M_J_R_BPU,Raw,97.9,100,180,190,210,210,145,155,165,165,200,220,235,235,610,SBD,1
Will Lewis,M,23,M_J_R_ABPU,Raw,104.9,110,210,222.5,230,230,145,150,157.5,157.5,220,237.5,-260,237.5,625,SBD,1
Christian Young,M,30,M_O_R_BPU,Raw,74,75,150,-165,,150,110,125,-140,125,215,240,267.5,267.5,542.5,SBD,1
Sam Mclean,M,22,M_J_CR_BPU,Wraps,81.8,82.5,-272.5,272.5,-290,272.5,142.5,150,155,155,267.5,280,285,285,712.5,SBD,1
Luke Tolman,M,20,M_J_CR_BPU,Wraps,98.4,100,290,310,327.5,327.5,210,220,227.5,227.5,270,295,300,300,855,SBD,1
Sophie Viner,F,25,F_O_R_ABPU,Raw,90,90,,,,,,,,,,,,,,SBD,NS
Charlotte Blomfield,F,46,F_M2_CR_ABPU,Wraps,82.5,82.5,,,,,,,,,,,,,,SBD,NS
Ceris Moyle,F,35,F_O_CR_BPU,Wraps,,,,,,,,,,,,,,,,SBD,NS
Karl Chilcott,M,49,M_M2_CR_BPU,Wraps,,,,,,,,,,,,,,,,SBD,NS
John East,M,33,M_O_CR_BPU,Wraps,,,,,,,,,,,,,,,,SBD,NS
Angie Stevens,F,45,F_M2_CR_ABPU,Wraps,66.7,67.5,90,95,-100,95,47.5,52.5,-55,52.5,105,110,115,115,262.5,SBD,1
Melanie Cuff,F,47,F_M2_R_ABPU,Raw,65.7,67.5,100,110,-115,110,45,50,-55,50,110,120,130,130,290,SBD,1
Maddie Smith,F,42,F_M1_R_ABPU,Raw,73,75,95,100,,100,55,57.5,-60,57.5,110,120,,120,277.5,SBD,1
Jodie Davies,F,23,F_J_S_ABPU,Single-ply,47.3,48,125,135,-145,135,70,-75,77.5,77.5,115,125,-135,125,337.5,SBD,1
Alice Swain,F,22,F_J_CR_ABPU,Wraps,59,60,100,-110,110,110,52.5,57.5,-60,57.5,120,127.5,-130,127.5,295,SBD,1
Louise Gilkinson,F,29,F_O_CR_ABPU,Wraps,66.4,67.5,110,120,127.5,127.5,55,57.5,60,60,120,132.5,-137.5,132.5,320,SBD,2
Marie-Anne Thomas,F,33,F_O_CR_ABPU,Wraps,70.8,75,115,120,-130,120,50,-55,-55,50,125,127.5,-130,127.5,297.5,SBD,1
Jessica Evans #1,F,29,F_O_CR_ABPU,Wraps,59.9,60,100,105,-107.5,105,45,50,-55,50,135,-145,-145,135,290,SBD,2
Jody Pritchard,F,38,F_O_CR_ABPU,Wraps,59.1,60,110,120,-130,120,55,57.5,60,60,135,142.5,150,150,330,SBD,1
Shan Passmore,F,48,F_M2_CR_ABPU,Wraps,59,60,120,130,-135,130,60,65,-70,65,145,155,-162.5,155,350,SBD,1
Amanda Gisby,F,37,F_O_CR_ABPU,Wraps,66.2,67.5,150,157.5,162.5,162.5,60,-67.5,-67.5,60,160,-170,,160,382.5,SBD,1
Evelina Johansson,F,25,F_O_CR_BPU,Wraps,67.3,67.5,160,167.5,172.5,172.5,75,80,85,85,180,190,200,200,457.5,SBD,1
Karen Winder,F,61,F_M5_CR_ABPU,Wraps,67.5,67.5,,,,,,,,,,,,,,SBD,NS
Hana Rose,F,25,F_O_CR_ABPU,Wraps,60,60,,,,,,,,,,,,,,SBD,NS
Matthew Jones,M,27,M_O_S_ABPU,Single-ply,79.7,82.5,,,,,,,,,-200,200,222.5,222.5,222.5,D,1
Matthew Close,M,24,M_O_R_BPU,Raw,108.3,110,200,212.5,217.5,217.5,127.5,132.5,140,140,220,232.5,242.5,242.5,600,SBD,1
Jack Coyne,M,28,M_O_CR_ABPU,Wraps,123,125,270,285,300,300,180,187.5,195,195,245,260,275,275,770,SBD,1
Marc Adams,M,35,M_O_CR_ABPU,Wraps,120.5,125,-230,240,250,250,140,145,150,150,240,262.5,-280,262.5,662.5,SBD,2
Tom Mcmutrie,M,52,M_M3_CR_BPU,Wraps,118.5,125,205,215,-222.5,215,150,162.5,,162.5,255,272.5,282.5,282.5,660,SBD,1
Andrew Murphy #1,M,25,M_O_S_BPU,Single-ply,95.1,100,250,280,300,300,180,,,180,250,277.5,-282.5,277.5,757.5,SBD,1
Scott Neary,M,29,M_O_M_ABPU,Multi-ply,113.1,125,325,-345,-345,325,250,-270,-270,250,260,275,-285,275,850,SBD,1
Greg Probert,M,39,M_O_S_BPU,Single-ply,108.3,110,300,320,340,340,210,225,-235,225,270,-290,290,290,855,SBD,1
Luke Litchfield,M,33,M_O_S_BPU,Single-ply,101.6,110,310,335,350,350,210,225,240,240,210,260,-302.5,260,850,SBD,2
Mitchal Flowers,M,28,M_O_CR_ABPU,Wraps,160.2,140+,315,345,365,365,-192.5,202.5,-210,202.5,300,-317.5,317.5,317.5,885,SBD,1
William Tinkler,M,48,M_M2_S_ABPU,Single-ply,102.5,110,220,250,,250,70,,,70,200,220,,220,540,SBD,1
Simon Cup,M,,M_O_CR_BPU,Wraps,,,,,,,,,,,,,,,,SBD,NS
Dan Brown #5,M,29,M_O_R_ABPU,Raw,86.6,90,142.5,-150,150,150,-102.5,102.5,-107.5,102.5,170,180,-185,180,432.5,SBD,2
Richard Jones #1,M,39,M_O_R_ABPU,Raw,81.8,82.5,,,,,,,,,170,210,,210,210,D,1
David Bendle,M,36,M_O_CR_ABPU,Wraps,99.6,100,185,190,-200,190,125,130,135,135,185,200,-215,200,525,SBD,4
Steven Arnold,M,41,M_M1_CR_ABPU,Wraps,81.1,82.5,155,160,165,165,115,120,125,125,192.5,195,197.5,197.5,487.5,SBD,1
Julian Tregakis,M,45,M_M2_R_BPU,Raw,98.9,100,165,175,182.5,182.5,122.5,127.5,132.5,132.5,-195,195,207.5,207.5,522.5,SBD,1
Andrew Kuttner,M,63,M_M5_R_BPU,Raw,95.1,100,,,,,95,105,112.5,112.5,,,,,112.5,B,1
Andrew Kuttner,M,63,M_M5_R_BPU,Raw,95.1,100,,,,,,,,,195,215,227.5,227.5,227.5,D,1
Gareth James,M,40,M_M1_CR_BPU,Wraps,93.9,100,185,195,-202.5,195,110,115,120,120,220,235,-247.5,235,550,SBD,1
Adam Gasson,M,39,M_O_R_ABPU,Raw,87.9,90,180,195,200,200,130,140,-147.5,140,220,240,-252.5,240,580,SBD,1
Matthew Pardy,M,33,M_O_CR_BPU,Wraps,88.5,90,-205,205,210,210,132.5,140,-145,140,220,225,,225,575,SBD,2
Matthew Jacobs #1,M,34,M_O_CR_ABPU,Wraps,96.4,100,180,195,205,205,105,115,130,130,240,270,-285,270,605,SBD,3
David Todd,M,36,M_O_CR_BPU,Wraps,87,90,250,270,282.5,282.5,150,155,165,165,270,285,-300,285,732.5,SBD,1
Alex Wilkinson,M,37,M_O_CR_BPU,Wraps,99.9,100,200,210,220,220,175,185,200,200,270,285,300,300,720,SBD,1
Josh Walton #1,M,26,M_O_CR_ABPU,Wraps,96.3,100,265,285,300,300,155,162.5,-170,162.5,270,285,-300,285,747.5,SBD,1
Tommy Ray D'Ortez #1,M,30,M_O_R_BPU,Raw,99.7,100,225,-232.5,235,235,135,145,150,150,275,-292.5,-295,275,660,SBD,1
Michael Walton,M,28,M_O_CR_ABPU,Wraps,100,100,230,245,255,255,140,147.5,152.5,152.5,275,292.5,307.5,307.5,715,SBD,2
Dean Wyatt,M,29,M_O_CR_BPU,Wraps,88.5,90,-290,-310,,,,,,,,,,,,SBD,DQ
Valid Zachev,M,,M_O_CR_BPU,Wraps,,,,,,,,,,,,,,,,SBD,NS
Rother Rimmon,M,,M_O_CR_BPU,Wraps,,,,,,,,,,,,,,,,SBD,NS
