Name,BirthDate,Equipment,Division,Sex,BodyweightKg,WeightClassKg,Best3SquatKg,Best3BenchKg,Best3DeadliftKg,TotalKg,Event,Place
Becca Lamar,,Raw,FORE,F,83.6,90,130,87.5,152.5,370,SBD,1
Rebecca VanDeMark,,Wraps,FOR-AD,F,64.3,67.5,102.5,42.5,112.5,257.5,SBD,2
Stevi-Rae Sanna,,Wraps,FOR-AD,F,79.9,82.5,110,47.5,150,307.5,SBD,2
Alice Garvin,,Wraps,FOR-AD,F,65,67.5,120,60,137.5,317.5,SBD,1
Jane Konoya,,Wraps,FOR-AD,F,79.4,82.5,115,72.5,145,332.5,SBD,1
Evelina Knodel,,Wraps,FOR,F,59.9,60,107.5,72.5,147.5,327.5,SBD,1
Kendra Gallagher,,Wraps,FOR,F,86.1,90,137.5,52.5,147.5,337.5,SBD,1
Pam Yagiela,,Wraps,FM6R-AD,F,61.3,67.5,32.5,40,105,177.5,SBD,1
Kathy Walsh,,Wraps,FM3R-AD,F,97.4,90+,172.5,75,162.5,410,SBD,1
Jane Konoya,,Wraps,FM2R-AD,F,79.4,82.5,115,72.5,145,332.5,SBD,1
Stacia Proefrock,,Wraps,FM2R-AD,F,126.1,90+,130,60,160,350,SBD,1
Erin Janowicz,,Wraps,FM1R-AD,F,59.1,60,120,55,167.5,342.5,SBD,1
Kendra Gallagher,,Wraps,FJR,F,86.1,90,137.5,52.5,147.5,337.5,SBD,1
Brandon Cook,,Raw,MORE-AD,M,89.6,90,185,152.5,260,597.5,SBD,2
Mike Graf,,Raw,MORE-AD,M,86.7,90,230,140,255,625,SBD,1
Matt Draper,,Raw,MORE,M,171.4,140+,325,225,320,870,SBD,1
Tony Smouthers,,Multi-ply,MO-AD,M,75.7,82.5,220,145,240,605,SBD,1
John Kalil,,Multi-ply,MO,M,104.2,110,295,237.5,257.5,790,SBD,1
Cory Schutter,,Multi-ply,MO,M,139.2,140,365,327.5,272.5,965,SBD,1
Roger Bailey,,Multi-ply,MM3,M,123,125,375,250,242.5,867.5,SBD,1
Steve Imkamp,,Multi-ply,MM2,M,115.7,125,,,,,SBD,DQ
Carter Conover,,Wraps,MT3R,M,120.5,125,207.5,117.5,207.5,532.5,SBD,1
Josh Cole,,Wraps,MOR-AD,M,74.5,75,160,100,197.5,457.5,SBD,1
Skyler McDowell,,Wraps,MOR-AD,M,88.7,90,215,172.5,210,597.5,SBD,1
Derek Nichols,,Wraps,MOR-AD,M,90.4,100,252.5,145,240,637.5,SBD,1
Acy Huffman,,Wraps,MOR-AD,M,108.7,110,257.5,165,265,687.5,SBD,1
William Bowen,,Wraps,MOR,M,72.2,75,147.5,115,235,497.5,SBD,1
Jeffrey Fenton,,Wraps,MOR,M,108.6,110,167.5,132.5,212.5,512.5,SBD,3
Jeremy Goss,,Wraps,MOR,M,96,100,300,172.5,62.5,535,SBD,3
Craig Tackett,,Wraps,MOR,M,78.5,82.5,215,137.5,207.5,560,SBD,2
Mike Dehner,,Wraps,MOR,M,79.4,82.5,240,137.5,227.5,605,SBD,1
Jake Danko,,Wraps,MOR,M,99.1,100,257.5,142.5,250,650,SBD,2
Lloyd Soss,,Wraps,MOR,M,98.9,100,272.5,172.5,237.5,682.5,SBD,1
Danny Arpin,,Wraps,MOR,M,113.4,125,277.5,195,272.5,745,SBD,3
Jeromy Bryk,,Wraps,MOR,M,88.9,90,307.5,165,277.5,750,SBD,1
Chris Graf,,Wraps,MOR,M,107.8,110,302.5,182.5,275,760,SBD,2
Nick Gout,,Wraps,MOR,M,148.6,140+,290,187.5,287.5,765,SBD,1
Kevin Smith #1,,Wraps,MOR,M,134,140,300,200,317.5,817.5,SBD,1
Torin MacGregor,,Wraps,MOR,M,107.8,110,320,205,320,845,SBD,1
Ed Knoblock,,Wraps,MOR,M,117.3,125,327.5,235,357.5,920,SBD,1
Marcus Waugh,,Wraps,MOR,M,124,125,365,230,325,920,SBD,2
Tim Walsh,,Wraps,MM4R-AD,M,88.6,90,192.5,110,182.5,485,SBD,1
Mike Dehner,,Wraps,MM3R,M,79.4,82.5,240,137.5,227.5,605,SBD,1
Chris Lindsay #1,,Wraps,MM1R-AD,M,55.2,56,185,90,205,480,SBD,1
Matt Brandys,,Wraps,MM1R-AD,M,89,90,205,127.5,235,567.5,SBD,1
Matt Tripp,,Wraps,MM1R,M,98.3,100,272.5,182.5,282.5,737.5,SBD,1
Aaron Brown,,Wraps,MM1R,M,118.7,125,282.5,215,287.5,785,SBD,1
Kate Bulzan,,Multi-ply,FO-AD,F,81.1,82.5,,150,,150,B,1
Raeann Veneziale,,Raw,FOR-AD,F,89,90,,85,,85,B,1
Peggy Dutcher,,Raw,FM6R,F,87.7,90,,40,,40,B,1
John Wagner,,Multi-ply,MM2,M,113.3,125,,262.5,,262.5,B,1
Dave Murphy,,Multi-ply,MM5,M,108.5,110,,287.5,,287.5,B,1
Kenny Nonthaweth,,Raw,MOR-AD,M,65.4,67.5,,135,,135,B,1
Gary Knurek,,Raw,MOR,M,96.7,100,,207.5,,207.5,B,1
Lonnie Dickinson,,Raw,MOR,M,149.7,140+,,255,,255,B,1
Kenny Nonthaweth,,Raw,MSR-AD,M,65.4,67.5,,135,,135,B,1
Mark Havens,,Raw,MSR-AD,M,166.5,140+,,172.5,,172.5,B,1
Lonnie Dickinson,,Raw,MM2R,M,149.7,140+,,255,,255,B,1
Bob McCallister,,Raw,MM4R,M,113,125,,177.5,,177.5,B,1
Shane Caruso,,Raw,MOR,M,95,100,,,305,305,D,1
John Wagner,,Multi-ply,MM2,M,113.3,125,,,275,275,D,1
Paul Hunt,,Multi-ply,MM3-AD,M,107.3,110,,,260,260,D,1
